<svg width="1170" height="703" viewBox="0 0 1170 703" fill="none" xmlns="http://www.w3.org/2000/svg">
<path d="M583.447 338.478L583.485 339.091C583.808 338.821 584.245 338.847 584.796 339.168C585.383 339.512 585.787 340.016 586.006 340.681C586.326 340.331 586.783 340.33 587.376 340.676C587.871 340.965 588.239 341.348 588.481 341.824C588.722 342.298 588.843 342.87 588.843 343.54L588.843 346.914L587.621 346.2L587.621 342.831C587.621 342.531 587.57 342.284 587.469 342.088C587.368 341.889 587.189 341.714 586.933 341.565C586.568 341.351 586.315 341.405 586.175 341.727L586.179 345.357L584.96 344.645L584.96 341.281C584.96 340.975 584.908 340.723 584.804 340.526C584.7 340.328 584.523 340.157 584.273 340.01C583.928 339.808 583.677 339.828 583.523 340.07L583.523 343.805L582.304 343.094L582.304 337.81L583.447 338.478ZM591.883 348.788C591.214 348.397 590.669 347.841 590.247 347.119C589.828 346.399 589.619 345.644 589.619 344.853L589.619 344.716C589.619 344.185 589.708 343.764 589.885 343.45C590.062 343.134 590.312 342.958 590.635 342.922C590.961 342.885 591.332 342.988 591.748 343.231C592.372 343.595 592.862 344.11 593.219 344.774C593.579 345.44 593.759 346.191 593.759 347.028L593.759 347.604L590.854 345.907C590.894 346.275 591.012 346.62 591.208 346.944C591.408 347.268 591.659 347.52 591.963 347.697C592.432 347.971 592.799 347.989 593.063 347.749L593.662 348.875C593.479 349.068 593.232 349.158 592.92 349.145C592.608 349.129 592.262 349.01 591.883 348.788ZM591.744 344.371C591.502 344.229 591.305 344.209 591.154 344.309C591.005 344.411 590.909 344.625 590.867 344.952L592.562 345.942L592.562 345.83C592.556 345.514 592.483 345.231 592.342 344.979C592.202 344.725 592.002 344.522 591.744 344.371ZM595.913 344.463L595.913 345.762L596.693 346.218L596.693 347.253L595.913 346.797L595.913 349.434C595.913 349.629 595.946 349.788 596.01 349.91C596.075 350.033 596.199 350.147 596.381 350.254C596.516 350.333 596.636 350.391 596.74 350.429L596.74 351.499C596.501 351.444 596.255 351.342 596.002 351.195C595.147 350.695 594.712 349.941 594.695 348.932L594.695 346.085L594.029 345.696L594.029 344.661L594.695 345.05L594.695 343.751L595.913 344.463ZM600.015 353.442C599.959 353.282 599.918 353.101 599.893 352.897C599.598 353.105 599.214 353.072 598.742 352.796C598.295 352.535 597.924 352.168 597.629 351.696C597.337 351.226 597.191 350.763 597.191 350.307C597.191 349.747 597.369 349.422 597.726 349.331C598.086 349.242 598.604 349.393 599.282 349.786L599.843 350.114L599.843 349.811C599.843 349.567 599.788 349.339 599.678 349.129C599.571 348.92 599.401 348.747 599.168 348.611C598.963 348.491 598.801 348.454 598.683 348.499C598.568 348.545 598.51 348.668 598.51 348.866L597.292 348.154C597.292 347.848 597.373 347.613 597.536 347.448C597.699 347.283 597.93 347.214 598.228 347.241C598.526 347.266 598.86 347.386 599.231 347.603C599.793 347.931 600.239 348.356 600.568 348.877C600.899 349.396 601.065 349.952 601.065 350.545L601.065 352.835C601.068 353.338 601.128 353.752 601.246 354.078L601.246 354.161L600.015 353.442ZM599.008 351.872C599.188 351.977 599.353 352.028 599.505 352.026C599.657 352.02 599.769 351.96 599.843 351.847L599.843 350.939L599.387 350.673C598.777 350.316 598.453 350.371 598.413 350.836L598.409 350.917C598.409 351.092 598.463 351.268 598.569 351.445C598.676 351.621 598.822 351.763 599.008 351.872ZM603.287 355.354L602.064 354.639L602.064 347.139L603.287 347.854L603.287 355.354Z" fill="black"/>
<path d="M628.447 363.478L628.485 364.091C628.808 363.821 629.245 363.847 629.796 364.168C630.383 364.512 630.787 365.016 631.006 365.681C631.326 365.331 631.783 365.33 632.376 365.676C632.871 365.965 633.239 366.348 633.481 366.824C633.722 367.298 633.843 367.87 633.843 368.54L633.843 371.914L632.621 371.2L632.621 367.831C632.621 367.531 632.57 367.284 632.469 367.088C632.368 366.889 632.189 366.714 631.933 366.565C631.568 366.351 631.315 366.405 631.175 366.727L631.179 370.357L629.96 369.645L629.96 366.281C629.96 365.975 629.908 365.723 629.804 365.526C629.7 365.328 629.523 365.157 629.273 365.01C628.928 364.808 628.677 364.828 628.523 365.07L628.523 368.805L627.304 368.094L627.304 362.81L628.447 363.478ZM636.883 373.788C636.214 373.397 635.669 372.841 635.247 372.119C634.828 371.399 634.619 370.644 634.619 369.853L634.619 369.716C634.619 369.185 634.708 368.764 634.885 368.45C635.062 368.134 635.312 367.958 635.635 367.922C635.961 367.885 636.332 367.988 636.748 368.231C637.372 368.595 637.862 369.11 638.219 369.774C638.579 370.44 638.759 371.191 638.759 372.028L638.759 372.604L635.854 370.907C635.894 371.275 636.012 371.62 636.208 371.944C636.408 372.268 636.659 372.52 636.963 372.697C637.432 372.971 637.799 372.989 638.063 372.749L638.662 373.875C638.479 374.068 638.232 374.158 637.92 374.145C637.608 374.129 637.262 374.01 636.883 373.788ZM636.744 369.371C636.502 369.229 636.305 369.209 636.154 369.309C636.005 369.411 635.909 369.625 635.867 369.952L637.562 370.942L637.562 370.83C637.556 370.514 637.483 370.231 637.342 369.979C637.202 369.725 637.002 369.522 636.744 369.371ZM640.913 369.463L640.913 370.762L641.693 371.218L641.693 372.253L640.913 371.797L640.913 374.434C640.913 374.629 640.946 374.788 641.01 374.91C641.075 375.033 641.199 375.147 641.381 375.254C641.516 375.333 641.636 375.391 641.74 375.429L641.74 376.499C641.501 376.444 641.255 376.342 641.002 376.195C640.147 375.695 639.712 374.941 639.695 373.932L639.695 371.085L639.029 370.696L639.029 369.661L639.695 370.05L639.695 368.751L640.913 369.463ZM645.015 378.442C644.959 378.282 644.918 378.101 644.893 377.897C644.598 378.105 644.214 378.072 643.742 377.796C643.295 377.535 642.924 377.168 642.629 376.696C642.337 376.226 642.191 375.763 642.191 375.307C642.191 374.747 642.369 374.422 642.726 374.331C643.086 374.242 643.604 374.393 644.282 374.786L644.843 375.114L644.843 374.811C644.843 374.567 644.788 374.339 644.678 374.129C644.571 373.92 644.401 373.747 644.168 373.611C643.963 373.491 643.801 373.454 643.683 373.499C643.568 373.545 643.51 373.668 643.51 373.866L642.292 373.154C642.292 372.848 642.373 372.613 642.536 372.448C642.699 372.283 642.93 372.214 643.228 372.241C643.526 372.266 643.86 372.386 644.231 372.603C644.793 372.931 645.239 373.356 645.568 373.877C645.899 374.396 646.065 374.952 646.065 375.545L646.065 377.835C646.068 378.338 646.128 378.752 646.246 379.078L646.246 379.161L645.015 378.442ZM644.008 376.872C644.188 376.977 644.353 377.028 644.505 377.026C644.657 377.02 644.769 376.96 644.843 376.847L644.843 375.939L644.387 375.673C643.777 375.316 643.453 375.371 643.413 375.836L643.409 375.917C643.409 376.092 643.463 376.268 643.569 376.445C643.676 376.621 643.822 376.763 644.008 376.872ZM648.287 380.354L647.064 379.639L647.064 372.139L648.287 372.854L648.287 380.354Z" fill="black"/>
<path d="M452.447 263.478L452.485 264.091C452.808 263.821 453.245 263.847 453.796 264.168C454.383 264.512 454.787 265.016 455.006 265.681C455.326 265.331 455.783 265.33 456.376 265.676C456.871 265.965 457.239 266.348 457.481 266.824C457.722 267.298 457.843 267.87 457.843 268.54L457.843 271.914L456.621 271.2L456.621 267.831C456.621 267.531 456.57 267.284 456.469 267.088C456.368 266.889 456.189 266.714 455.933 266.565C455.568 266.351 455.315 266.405 455.175 266.727L455.179 270.357L453.96 269.645L453.96 266.281C453.96 265.975 453.908 265.723 453.804 265.526C453.7 265.328 453.523 265.157 453.273 265.01C452.928 264.808 452.677 264.828 452.523 265.07L452.523 268.805L451.304 268.094L451.304 262.81L452.447 263.478ZM460.883 273.788C460.214 273.397 459.669 272.841 459.247 272.119C458.828 271.399 458.619 270.644 458.619 269.853L458.619 269.716C458.619 269.185 458.708 268.764 458.885 268.45C459.062 268.134 459.312 267.958 459.635 267.922C459.961 267.885 460.332 267.988 460.748 268.231C461.372 268.595 461.862 269.11 462.219 269.774C462.579 270.44 462.759 271.191 462.759 272.028L462.759 272.604L459.854 270.907C459.894 271.275 460.012 271.62 460.208 271.944C460.408 272.268 460.66 272.52 460.963 272.697C461.432 272.971 461.799 272.989 462.063 272.749L462.662 273.875C462.479 274.068 462.232 274.158 461.92 274.145C461.608 274.129 461.262 274.01 460.883 273.788ZM460.744 269.371C460.502 269.229 460.305 269.209 460.154 269.309C460.005 269.411 459.909 269.625 459.867 269.952L461.562 270.942L461.562 270.83C461.556 270.514 461.483 270.231 461.342 269.979C461.202 269.725 461.002 269.522 460.744 269.371ZM464.913 269.463L464.913 270.762L465.693 271.218L465.693 272.253L464.913 271.797L464.913 274.434C464.913 274.629 464.946 274.788 465.01 274.91C465.075 275.033 465.199 275.147 465.381 275.254C465.516 275.333 465.636 275.391 465.74 275.429L465.74 276.499C465.501 276.444 465.255 276.342 465.002 276.195C464.147 275.695 463.712 274.941 463.695 273.932L463.695 271.085L463.029 270.696L463.029 269.661L463.695 270.05L463.695 268.751L464.913 269.463ZM469.015 278.442C468.959 278.282 468.918 278.101 468.893 277.897C468.598 278.105 468.214 278.072 467.742 277.796C467.295 277.535 466.924 277.168 466.629 276.696C466.337 276.226 466.191 275.763 466.191 275.307C466.191 274.747 466.369 274.422 466.726 274.331C467.086 274.242 467.604 274.393 468.282 274.786L468.843 275.114L468.843 274.811C468.843 274.567 468.788 274.339 468.678 274.129C468.571 273.92 468.401 273.747 468.168 273.611C467.963 273.491 467.801 273.454 467.683 273.499C467.568 273.545 467.51 273.668 467.51 273.866L466.292 273.154C466.292 272.848 466.373 272.613 466.536 272.448C466.699 272.283 466.93 272.214 467.228 272.241C467.526 272.266 467.86 272.386 468.231 272.603C468.793 272.931 469.239 273.356 469.568 273.877C469.899 274.396 470.065 274.952 470.065 275.545L470.065 277.835C470.068 278.338 470.128 278.752 470.246 279.078L470.246 279.161L469.015 278.442ZM468.008 276.872C468.188 276.977 468.354 277.028 468.505 277.026C468.657 277.02 468.769 276.96 468.843 276.847L468.843 275.939L468.387 275.673C467.777 275.316 467.453 275.371 467.413 275.836L467.409 275.917C467.409 276.092 467.463 276.268 467.569 276.445C467.676 276.621 467.822 276.763 468.008 276.872ZM472.287 280.354L471.064 279.639L471.064 272.139L472.287 272.854L472.287 280.354Z" fill="black"/>
<path d="M497.447 288.478L497.485 289.091C497.808 288.821 498.245 288.847 498.796 289.168C499.383 289.512 499.787 290.016 500.006 290.681C500.326 290.331 500.783 290.33 501.376 290.676C501.871 290.965 502.239 291.348 502.481 291.824C502.722 292.298 502.843 292.87 502.843 293.54L502.843 296.914L501.621 296.2L501.621 292.831C501.621 292.531 501.57 292.284 501.469 292.088C501.368 291.889 501.189 291.714 500.933 291.565C500.568 291.351 500.315 291.405 500.175 291.727L500.179 295.357L498.96 294.645L498.96 291.281C498.96 290.975 498.908 290.723 498.804 290.526C498.7 290.328 498.523 290.157 498.273 290.01C497.928 289.808 497.677 289.828 497.523 290.07L497.523 293.805L496.304 293.094L496.304 287.81L497.447 288.478ZM505.883 298.788C505.214 298.397 504.669 297.841 504.247 297.119C503.828 296.399 503.619 295.644 503.619 294.853L503.619 294.716C503.619 294.185 503.708 293.764 503.885 293.45C504.062 293.134 504.312 292.958 504.635 292.922C504.961 292.885 505.332 292.988 505.748 293.231C506.372 293.595 506.862 294.11 507.219 294.774C507.579 295.44 507.759 296.191 507.759 297.028L507.759 297.604L504.854 295.907C504.894 296.275 505.012 296.62 505.208 296.944C505.408 297.268 505.66 297.52 505.963 297.697C506.432 297.971 506.799 297.989 507.063 297.749L507.662 298.875C507.479 299.068 507.232 299.158 506.92 299.145C506.608 299.129 506.262 299.01 505.883 298.788ZM505.744 294.371C505.502 294.229 505.305 294.209 505.154 294.309C505.005 294.411 504.909 294.625 504.867 294.952L506.562 295.942L506.562 295.83C506.556 295.514 506.483 295.231 506.342 294.979C506.202 294.725 506.002 294.522 505.744 294.371ZM509.913 294.463L509.913 295.762L510.693 296.218L510.693 297.253L509.913 296.797L509.913 299.434C509.913 299.629 509.946 299.788 510.01 299.91C510.075 300.033 510.199 300.147 510.381 300.254C510.516 300.333 510.636 300.391 510.74 300.429L510.74 301.499C510.501 301.444 510.255 301.342 510.002 301.195C509.147 300.695 508.712 299.941 508.695 298.932L508.695 296.085L508.029 295.696L508.029 294.661L508.695 295.05L508.695 293.751L509.913 294.463ZM514.015 303.442C513.959 303.282 513.918 303.101 513.893 302.897C513.598 303.105 513.214 303.072 512.742 302.796C512.295 302.535 511.924 302.168 511.629 301.696C511.337 301.226 511.191 300.763 511.191 300.307C511.191 299.747 511.369 299.422 511.726 299.331C512.086 299.242 512.604 299.393 513.282 299.786L513.843 300.114L513.843 299.811C513.843 299.567 513.788 299.339 513.678 299.129C513.571 298.92 513.401 298.747 513.168 298.611C512.963 298.491 512.801 298.454 512.683 298.499C512.568 298.545 512.51 298.668 512.51 298.866L511.292 298.154C511.292 297.848 511.373 297.613 511.536 297.448C511.699 297.283 511.93 297.214 512.228 297.241C512.526 297.266 512.86 297.386 513.231 297.603C513.793 297.931 514.239 298.356 514.568 298.877C514.899 299.396 515.065 299.952 515.065 300.545L515.065 302.835C515.068 303.338 515.128 303.752 515.246 304.078L515.246 304.161L514.015 303.442ZM513.008 301.872C513.188 301.977 513.354 302.028 513.505 302.026C513.657 302.02 513.769 301.96 513.843 301.847L513.843 300.939L513.387 300.673C512.777 300.316 512.453 300.371 512.413 300.836L512.409 300.917C512.409 301.092 512.463 301.268 512.569 301.445C512.676 301.621 512.822 301.763 513.008 301.872ZM517.287 305.354L516.064 304.639L516.064 297.139L517.287 297.854L517.287 305.354Z" fill="black"/>
</svg>
