<svg width="1170" height="703" viewBox="0 0 1170 703" fill="none" xmlns="http://www.w3.org/2000/svg">
<path d="M579.544 323.925L579.544 327.932L577.52 326.75L577.52 315.375L581.352 317.614C582.089 318.045 582.737 318.579 583.294 319.218C583.856 319.859 584.288 320.556 584.589 321.31C584.891 322.059 585.041 322.801 585.041 323.535C585.041 324.65 584.711 325.337 584.05 325.597C583.393 325.854 582.483 325.642 581.318 324.961L579.544 323.925ZM579.544 322.026L581.352 323.082C581.887 323.395 582.294 323.487 582.572 323.358C582.856 323.232 582.997 322.898 582.997 322.357C582.997 321.799 582.856 321.266 582.572 320.757C582.289 320.248 581.898 319.842 581.399 319.54L579.544 318.456L579.544 322.026ZM588.212 326.31L589.25 326.917C589.745 327.206 590.112 327.277 590.35 327.129C590.588 326.982 590.707 326.672 590.707 326.198C590.707 325.739 590.588 325.313 590.35 324.918C590.116 324.527 589.792 324.21 589.379 323.968C589.005 323.75 588.693 323.687 588.441 323.78C588.189 323.867 588.063 324.1 588.063 324.481L586.114 323.342C586.114 322.748 586.251 322.297 586.525 321.988C586.804 321.677 587.191 321.533 587.686 321.557C588.185 321.583 588.733 321.771 589.331 322.12C590.37 322.727 591.184 323.492 591.773 324.414C592.362 325.331 592.657 326.295 592.657 327.305C592.657 327.826 592.52 328.225 592.245 328.502C591.971 328.78 591.611 328.905 591.166 328.88C591.719 329.432 592.131 330.016 592.401 330.632C592.675 331.251 592.812 331.873 592.812 332.498C592.812 333.508 592.493 334.131 591.854 334.368C591.22 334.607 590.379 334.42 589.331 333.808C588.351 333.235 587.548 332.466 586.923 331.502C586.303 330.541 585.992 329.568 585.992 328.583L587.942 329.722C587.942 330.149 588.079 330.578 588.353 331.01C588.632 331.443 588.974 331.778 589.379 332.015C589.842 332.286 590.204 332.356 590.465 332.228C590.73 332.096 590.863 331.796 590.863 331.327C590.863 330.192 590.323 329.309 589.244 328.678L588.212 328.075L588.212 326.31ZM593.939 332.054C593.939 330.737 594.193 329.836 594.701 329.351C595.213 328.869 595.913 328.887 596.799 329.405C597.509 329.82 598.096 330.47 598.559 331.356L598.559 327.043L600.515 328.186L600.515 340.186L598.755 339.157L598.66 338.204C598.175 338.623 597.55 338.61 596.785 338.163C595.926 337.661 595.236 336.867 594.714 335.781C594.197 334.692 593.939 333.45 593.939 332.054ZM595.888 333.357C595.888 334.149 596.007 334.825 596.245 335.387C596.484 335.948 596.83 336.361 597.284 336.626C597.887 336.978 598.312 336.932 598.559 336.488L598.559 333.153C598.316 332.422 597.896 331.882 597.298 331.533C596.358 330.984 595.888 331.592 595.888 333.357ZM603.821 333.664L603.881 334.676C604.403 334.226 605.102 334.257 605.979 334.769C606.753 335.221 607.328 335.821 607.706 336.567C608.084 337.314 608.277 338.214 608.286 339.266L608.286 344.727L606.337 343.588L606.337 338.181C606.337 337.702 606.247 337.303 606.067 336.985C605.887 336.661 605.588 336.377 605.17 336.132C604.621 335.812 604.21 335.842 603.935 336.223L603.935 342.184L601.986 341.045L601.986 332.592L603.821 333.664Z" fill="black"/>
<path d="M624.544 348.925L624.544 352.932L622.52 351.75L622.52 340.375L626.352 342.614C627.089 343.045 627.737 343.579 628.294 344.218C628.856 344.859 629.288 345.556 629.589 346.31C629.891 347.059 630.041 347.801 630.041 348.535C630.041 349.65 629.711 350.337 629.05 350.597C628.393 350.854 627.483 350.642 626.318 349.961L624.544 348.925ZM624.544 347.026L626.352 348.082C626.887 348.395 627.294 348.487 627.572 348.358C627.856 348.232 627.997 347.898 627.997 347.357C627.997 346.799 627.856 346.266 627.572 345.757C627.289 345.248 626.898 344.842 626.399 344.54L624.544 343.456L624.544 347.026ZM633.212 351.31L634.25 351.917C634.745 352.206 635.112 352.277 635.35 352.129C635.588 351.982 635.707 351.672 635.707 351.198C635.707 350.739 635.588 350.313 635.35 349.918C635.116 349.527 634.792 349.21 634.379 348.968C634.005 348.75 633.693 348.687 633.441 348.78C633.189 348.867 633.063 349.1 633.063 349.481L631.114 348.342C631.114 347.748 631.251 347.297 631.525 346.988C631.804 346.677 632.191 346.533 632.686 346.557C633.185 346.583 633.733 346.771 634.331 347.12C635.37 347.727 636.184 348.492 636.773 349.414C637.362 350.331 637.657 351.295 637.657 352.305C637.657 352.826 637.52 353.225 637.245 353.502C636.971 353.78 636.611 353.905 636.166 353.88C636.719 354.432 637.131 355.016 637.401 355.632C637.675 356.251 637.812 356.873 637.812 357.498C637.812 358.508 637.493 359.131 636.854 359.368C636.22 359.607 635.379 359.42 634.331 358.808C633.351 358.235 632.548 357.466 631.923 356.502C631.303 355.541 630.992 354.568 630.992 353.583L632.942 354.722C632.942 355.149 633.079 355.578 633.353 356.01C633.632 356.443 633.974 356.778 634.379 357.015C634.842 357.286 635.204 357.356 635.465 357.228C635.73 357.096 635.863 356.796 635.863 356.327C635.863 355.192 635.323 354.309 634.244 353.678L633.212 353.075L633.212 351.31ZM638.939 357.054C638.939 355.737 639.193 354.836 639.701 354.351C640.213 353.869 640.913 353.887 641.799 354.405C642.509 354.82 643.096 355.47 643.559 356.356L643.559 352.043L645.515 353.186L645.515 365.186L643.755 364.157L643.66 363.204C643.175 363.623 642.55 363.61 641.785 363.163C640.926 362.661 640.236 361.867 639.714 360.781C639.197 359.692 638.939 358.45 638.939 357.054ZM640.888 358.357C640.888 359.149 641.007 359.825 641.245 360.387C641.484 360.948 641.83 361.361 642.284 361.626C642.887 361.978 643.312 361.932 643.559 361.488L643.559 358.153C643.316 357.422 642.896 356.882 642.298 356.533C641.358 355.984 640.888 356.592 640.888 358.357ZM648.821 358.664L648.881 359.676C649.403 359.226 650.102 359.257 650.979 359.769C651.753 360.221 652.328 360.821 652.706 361.567C653.084 362.314 653.277 363.214 653.286 364.266L653.286 369.727L651.337 368.588L651.337 363.181C651.337 362.702 651.247 362.303 651.067 361.985C650.887 361.661 650.588 361.377 650.17 361.132C649.621 360.812 649.21 360.842 648.935 361.223L648.935 367.184L646.986 366.045L646.986 357.592L648.821 358.664Z" fill="black"/>
<path d="M448.544 248.956L448.544 252.964L446.52 251.782L446.52 240.407L450.352 242.645C451.089 243.076 451.737 243.611 452.294 244.249C452.856 244.89 453.288 245.588 453.589 246.342C453.891 247.091 454.041 247.832 454.041 248.567C454.041 249.681 453.711 250.368 453.05 250.628C452.393 250.885 451.483 250.673 450.318 249.993L448.544 248.956ZM448.544 247.058L450.352 248.114C450.887 248.427 451.294 248.519 451.572 248.39C451.856 248.264 451.997 247.93 451.997 247.388C451.997 246.831 451.856 246.298 451.572 245.788C451.289 245.279 450.898 244.873 450.399 244.571L448.544 243.487L448.544 247.058ZM457.212 251.341L458.25 251.948C458.745 252.237 459.112 252.308 459.35 252.161C459.588 252.014 459.707 251.703 459.707 251.229C459.707 250.771 459.588 250.344 459.35 249.95C459.116 249.558 458.792 249.241 458.379 249C458.005 248.781 457.693 248.719 457.441 248.811C457.189 248.898 457.063 249.132 457.063 249.512L455.114 248.373C455.114 247.779 455.251 247.328 455.525 247.02C455.804 246.709 456.191 246.565 456.686 246.588C457.185 246.614 457.733 246.802 458.331 247.152C459.37 247.759 460.184 248.523 460.773 249.446C461.362 250.363 461.657 251.326 461.657 252.337C461.657 252.858 461.52 253.257 461.245 253.534C460.971 253.811 460.611 253.937 460.166 253.911C460.719 254.464 461.131 255.048 461.401 255.664C461.675 256.282 461.812 256.904 461.812 257.529C461.812 258.54 461.493 259.163 460.854 259.399C460.22 259.638 459.379 259.451 458.331 258.839C457.351 258.266 456.548 257.498 455.923 256.534C455.303 255.572 454.992 254.599 454.992 253.615L456.942 254.754C456.942 255.181 457.079 255.61 457.353 256.041C457.632 256.475 457.974 256.81 458.379 257.046C458.842 257.317 459.204 257.388 459.465 257.259C459.73 257.128 459.863 256.828 459.863 256.359C459.863 255.223 459.323 254.34 458.244 253.71L457.212 253.107L457.212 251.341ZM462.939 257.086C462.939 255.768 463.193 254.867 463.701 254.383C464.213 253.901 464.913 253.919 465.799 254.437C466.509 254.852 467.096 255.502 467.559 256.387L467.559 252.075L469.515 253.218L469.515 265.218L467.755 264.189L467.66 263.235C467.175 263.655 466.55 263.641 465.785 263.194C464.926 262.692 464.236 261.898 463.714 260.812C463.197 259.724 462.939 258.482 462.939 257.086ZM464.888 258.389C464.888 259.181 465.007 259.857 465.245 260.418C465.484 260.979 465.83 261.392 466.284 261.658C466.887 262.01 467.312 261.964 467.559 261.52L467.559 258.184C467.316 257.454 466.896 256.914 466.298 256.564C465.358 256.015 464.888 256.623 464.888 258.389ZM472.821 258.696L472.881 259.708C473.403 259.257 474.102 259.288 474.979 259.801C475.753 260.253 476.328 260.852 476.706 261.599C477.084 262.346 477.277 263.245 477.286 264.297L477.286 269.758L475.337 268.619L475.337 263.213C475.337 262.734 475.247 262.335 475.067 262.016C474.887 261.692 474.588 261.408 474.17 261.164C473.621 260.843 473.21 260.874 472.935 261.255L472.935 267.216L470.986 266.077L470.986 257.624L472.821 258.696Z" fill="black"/>
<path d="M493.544 273.925L493.544 277.932L491.52 276.75L491.52 265.375L495.352 267.614C496.089 268.045 496.737 268.579 497.294 269.218C497.856 269.859 498.288 270.556 498.589 271.31C498.891 272.059 499.041 272.801 499.041 273.535C499.041 274.65 498.711 275.337 498.05 275.597C497.393 275.854 496.483 275.642 495.318 274.961L493.544 273.925ZM493.544 272.026L495.352 273.082C495.887 273.395 496.294 273.487 496.572 273.358C496.856 273.232 496.997 272.898 496.997 272.357C496.997 271.799 496.856 271.266 496.572 270.757C496.289 270.248 495.898 269.842 495.399 269.54L493.544 268.456L493.544 272.026ZM502.212 276.31L503.25 276.917C503.745 277.206 504.112 277.277 504.35 277.129C504.588 276.982 504.707 276.672 504.707 276.198C504.707 275.739 504.588 275.313 504.35 274.918C504.116 274.527 503.792 274.21 503.379 273.968C503.005 273.75 502.693 273.687 502.441 273.78C502.189 273.867 502.063 274.1 502.063 274.481L500.114 273.342C500.114 272.748 500.251 272.297 500.525 271.988C500.804 271.677 501.191 271.533 501.686 271.557C502.185 271.583 502.733 271.771 503.331 272.12C504.37 272.727 505.184 273.492 505.773 274.414C506.362 275.331 506.657 276.295 506.657 277.305C506.657 277.826 506.52 278.225 506.245 278.502C505.971 278.78 505.611 278.905 505.166 278.88C505.719 279.432 506.131 280.016 506.401 280.632C506.675 281.251 506.812 281.873 506.812 282.498C506.812 283.508 506.493 284.131 505.854 284.368C505.22 284.607 504.379 284.42 503.331 283.808C502.351 283.235 501.548 282.466 500.923 281.502C500.303 280.541 499.992 279.568 499.992 278.583L501.942 279.722C501.942 280.149 502.079 280.578 502.353 281.01C502.632 281.443 502.974 281.778 503.379 282.015C503.842 282.286 504.204 282.356 504.465 282.228C504.73 282.096 504.863 281.796 504.863 281.327C504.863 280.192 504.323 279.309 503.244 278.678L502.212 278.075L502.212 276.31ZM507.939 282.054C507.939 280.737 508.193 279.836 508.701 279.351C509.213 278.869 509.913 278.887 510.799 279.405C511.509 279.82 512.096 280.47 512.559 281.356L512.559 277.043L514.515 278.186L514.515 290.186L512.755 289.157L512.66 288.204C512.175 288.623 511.55 288.61 510.785 288.163C509.926 287.661 509.236 286.867 508.714 285.781C508.197 284.692 507.939 283.45 507.939 282.054ZM509.888 283.357C509.888 284.149 510.007 284.825 510.245 285.387C510.484 285.948 510.83 286.361 511.284 286.626C511.887 286.978 512.312 286.932 512.559 286.488L512.559 283.153C512.316 282.422 511.896 281.882 511.298 281.533C510.358 280.984 509.888 281.592 509.888 283.357ZM517.821 283.664L517.881 284.676C518.403 284.226 519.102 284.257 519.979 284.769C520.753 285.221 521.328 285.821 521.706 286.567C522.084 287.314 522.277 288.214 522.286 289.266L522.286 294.727L520.337 293.588L520.337 288.181C520.337 287.702 520.247 287.303 520.067 286.985C519.887 286.661 519.588 286.377 519.17 286.132C518.621 285.812 518.21 285.842 517.935 286.223L517.935 292.184L515.986 291.045L515.986 282.592L517.821 283.664Z" fill="black"/>
</svg>
