<svg width="1170" height="703" viewBox="0 0 1170 703" fill="none" xmlns="http://www.w3.org/2000/svg">
<path d="M580.614 326.055C580.313 326.303 579.897 326.271 579.366 325.961C578.877 325.675 578.503 325.294 578.245 324.817C577.989 324.342 577.858 323.789 577.852 323.158L577.852 319.696L579.071 320.408L579.071 323.821C579.071 324.371 579.287 324.772 579.72 325.025C580.133 325.267 580.417 325.266 580.572 325.025L580.572 321.285L581.794 321.999L581.794 327.282L580.648 326.612L580.614 326.055ZM585.083 326.728L582.709 325.341L582.709 324.203L585.083 325.59L585.083 326.728ZM588.97 331.475L587.751 330.763L587.751 325.323L586.297 324.996L586.297 323.849L588.839 324.279L588.97 324.356L588.97 331.475ZM594.969 329.76C594.969 330.105 594.894 330.368 594.746 330.548C594.597 330.728 594.391 330.821 594.13 330.828C594.428 331.168 594.664 331.535 594.838 331.93C595.013 332.322 595.1 332.714 595.1 333.108C595.1 333.74 594.914 334.131 594.543 334.282C594.172 334.43 593.668 334.317 593.03 333.945C592.392 333.572 591.886 333.092 591.512 332.506C591.138 331.92 590.951 331.313 590.951 330.684C590.951 330.29 591.038 329.998 591.213 329.807C591.387 329.616 591.622 329.525 591.917 329.535C591.655 329.222 591.45 328.889 591.301 328.535C591.155 328.183 591.082 327.834 591.082 327.489C591.082 326.884 591.256 326.504 591.605 326.349C591.953 326.192 592.427 326.288 593.025 326.637C593.621 326.986 594.093 327.441 594.442 328.002C594.793 328.562 594.969 329.148 594.969 329.76ZM593.877 332.291C593.877 331.982 593.8 331.689 593.645 331.414C593.491 331.138 593.283 330.923 593.021 330.771C592.763 330.62 592.556 330.592 592.401 330.687C592.247 330.779 592.17 330.981 592.17 331.294C592.17 331.596 592.245 331.885 592.397 332.159C592.549 332.433 592.76 332.649 593.03 332.807C593.294 332.961 593.5 332.992 593.649 332.9C593.801 332.81 593.877 332.607 593.877 332.291ZM593.751 329.117C593.751 328.84 593.687 328.582 593.561 328.342C593.434 328.099 593.256 327.91 593.025 327.775C592.798 327.642 592.621 327.62 592.494 327.709C592.368 327.798 592.305 327.985 592.305 328.272C592.305 328.555 592.368 328.82 592.494 329.066C592.621 329.313 592.799 329.503 593.03 329.638C593.26 329.773 593.437 329.79 593.561 329.69C593.687 329.591 593.751 329.4 593.751 329.117ZM597.435 329.839L597.435 331.138L598.215 331.594L598.215 332.629L597.435 332.173L597.435 334.81C597.435 335.005 597.468 335.164 597.532 335.286C597.597 335.409 597.721 335.523 597.903 335.63C598.038 335.709 598.158 335.767 598.262 335.805L598.262 336.875C598.023 336.82 597.777 336.718 597.524 336.571C596.669 336.071 596.234 335.317 596.217 334.308L596.217 331.461L595.551 331.072L595.551 330.037L596.217 330.426L596.217 329.127L597.435 329.839ZM603.004 337.082C603.004 337.929 602.848 338.498 602.536 338.791C602.225 339.081 601.789 339.063 601.23 338.736C600.735 338.447 600.34 337.996 600.045 337.384L599.99 337.914L598.894 337.273L598.894 329.773L600.112 330.485L600.112 333.176C600.393 332.959 600.763 332.985 601.221 333.252C601.778 333.578 602.213 334.07 602.528 334.729C602.846 335.386 603.004 336.145 603.004 337.004L603.004 337.082ZM601.786 336.268C601.786 335.734 601.713 335.302 601.567 334.973C601.421 334.64 601.203 334.389 600.913 334.22C600.526 333.993 600.259 334.021 600.112 334.304L600.112 336.389C600.261 336.847 600.531 337.19 600.922 337.418C601.315 337.648 601.574 337.575 601.698 337.198C601.757 337.017 601.786 336.707 601.786 336.268ZM606.668 341.816L605.45 341.104L605.45 335.665L603.995 335.337L603.995 334.19L606.537 334.62L606.668 334.697L606.668 341.816Z" fill="black"/>
<path d="M625.614 351.055C625.313 351.303 624.897 351.271 624.366 350.961C623.877 350.675 623.503 350.294 623.245 349.817C622.989 349.342 622.858 348.789 622.852 348.158L622.852 344.696L624.071 345.408L624.071 348.821C624.071 349.371 624.287 349.772 624.72 350.025C625.133 350.267 625.417 350.266 625.572 350.025L625.572 346.285L626.794 346.999L626.794 352.282L625.648 351.612L625.614 351.055ZM630.083 351.728L627.709 350.341L627.709 349.203L630.083 350.59L630.083 351.728ZM633.97 356.475L632.751 355.763L632.751 350.323L631.297 349.996L631.297 348.849L633.839 349.279L633.97 349.356L633.97 356.475ZM639.969 354.76C639.969 355.105 639.894 355.368 639.746 355.548C639.597 355.728 639.391 355.821 639.13 355.828C639.428 356.168 639.664 356.535 639.838 356.93C640.013 357.322 640.1 357.714 640.1 358.108C640.1 358.74 639.914 359.131 639.543 359.282C639.172 359.43 638.668 359.317 638.03 358.945C637.392 358.572 636.886 358.092 636.512 357.506C636.138 356.92 635.951 356.313 635.951 355.684C635.951 355.29 636.038 354.998 636.213 354.807C636.387 354.616 636.622 354.525 636.917 354.535C636.655 354.222 636.45 353.889 636.301 353.535C636.155 353.183 636.082 352.834 636.082 352.489C636.082 351.884 636.256 351.504 636.605 351.349C636.953 351.192 637.427 351.288 638.025 351.637C638.621 351.986 639.093 352.441 639.442 353.002C639.793 353.562 639.969 354.148 639.969 354.76ZM638.877 357.291C638.877 356.982 638.8 356.689 638.645 356.414C638.491 356.138 638.283 355.923 638.021 355.771C637.763 355.62 637.556 355.592 637.401 355.687C637.247 355.779 637.17 355.981 637.17 356.294C637.17 356.596 637.245 356.885 637.397 357.159C637.549 357.433 637.76 357.649 638.03 357.807C638.294 357.961 638.5 357.992 638.649 357.9C638.801 357.81 638.877 357.607 638.877 357.291ZM638.751 354.117C638.751 353.84 638.687 353.582 638.561 353.342C638.434 353.099 638.256 352.91 638.025 352.775C637.798 352.642 637.621 352.62 637.494 352.709C637.368 352.798 637.305 352.985 637.305 353.272C637.305 353.555 637.368 353.82 637.494 354.066C637.621 354.313 637.799 354.503 638.03 354.638C638.26 354.773 638.437 354.79 638.561 354.69C638.687 354.591 638.751 354.4 638.751 354.117ZM642.435 354.839L642.435 356.138L643.215 356.594L643.215 357.629L642.435 357.173L642.435 359.81C642.435 360.005 642.468 360.164 642.532 360.286C642.597 360.409 642.721 360.523 642.903 360.63C643.038 360.709 643.158 360.767 643.262 360.805L643.262 361.875C643.023 361.82 642.777 361.718 642.524 361.571C641.669 361.071 641.234 360.317 641.217 359.308L641.217 356.461L640.551 356.072L640.551 355.037L641.217 355.426L641.217 354.127L642.435 354.839ZM648.004 362.082C648.004 362.929 647.848 363.498 647.536 363.791C647.225 364.081 646.789 364.063 646.23 363.736C645.735 363.447 645.34 362.996 645.045 362.384L644.99 362.914L643.894 362.273L643.894 354.773L645.112 355.485L645.112 358.176C645.393 357.959 645.763 357.985 646.221 358.252C646.778 358.578 647.213 359.07 647.528 359.729C647.846 360.386 648.004 361.145 648.004 362.004L648.004 362.082ZM646.786 361.268C646.786 360.734 646.713 360.302 646.567 359.973C646.421 359.64 646.203 359.389 645.913 359.22C645.526 358.993 645.259 359.021 645.112 359.304L645.112 361.389C645.261 361.847 645.531 362.19 645.922 362.418C646.315 362.648 646.574 362.575 646.698 362.198C646.757 362.017 646.786 361.707 646.786 361.268ZM651.668 366.816L650.45 366.104L650.45 360.665L648.995 360.337L648.995 359.19L651.537 359.62L651.668 359.697L651.668 366.816Z" fill="black"/>
<path d="M449.614 251.055C449.313 251.303 448.897 251.271 448.366 250.961C447.877 250.675 447.503 250.294 447.245 249.817C446.989 249.342 446.858 248.789 446.852 248.158L446.852 244.696L448.071 245.408L448.071 248.821C448.071 249.371 448.287 249.772 448.72 250.025C449.133 250.267 449.417 250.266 449.572 250.025L449.572 246.285L450.794 246.999L450.794 252.282L449.648 251.612L449.614 251.055ZM454.083 251.728L451.709 250.341L451.709 249.203L454.083 250.59L454.083 251.728ZM457.97 256.475L456.751 255.763L456.751 250.323L455.297 249.996L455.297 248.849L457.839 249.279L457.97 249.356L457.97 256.475ZM463.969 254.76C463.969 255.105 463.894 255.368 463.746 255.548C463.597 255.728 463.391 255.821 463.13 255.828C463.428 256.168 463.664 256.535 463.838 256.93C464.013 257.322 464.1 257.714 464.1 258.108C464.1 258.74 463.914 259.131 463.543 259.282C463.172 259.43 462.668 259.317 462.03 258.945C461.392 258.572 460.886 258.092 460.512 257.506C460.138 256.92 459.951 256.313 459.951 255.684C459.951 255.29 460.038 254.998 460.213 254.807C460.387 254.616 460.622 254.525 460.917 254.535C460.655 254.222 460.45 253.889 460.301 253.535C460.155 253.183 460.082 252.834 460.082 252.489C460.082 251.884 460.256 251.504 460.605 251.349C460.953 251.192 461.427 251.288 462.025 251.637C462.621 251.986 463.093 252.441 463.442 253.002C463.793 253.562 463.969 254.148 463.969 254.76ZM462.877 257.291C462.877 256.982 462.8 256.689 462.645 256.414C462.491 256.138 462.283 255.923 462.021 255.771C461.763 255.62 461.556 255.592 461.401 255.687C461.247 255.779 461.17 255.981 461.17 256.294C461.17 256.596 461.245 256.885 461.397 257.159C461.549 257.433 461.76 257.649 462.03 257.807C462.294 257.961 462.5 257.992 462.649 257.9C462.801 257.81 462.877 257.607 462.877 257.291ZM462.751 254.117C462.751 253.84 462.687 253.582 462.561 253.342C462.434 253.099 462.256 252.91 462.025 252.775C461.798 252.642 461.621 252.62 461.494 252.709C461.368 252.798 461.305 252.985 461.305 253.272C461.305 253.555 461.368 253.82 461.494 254.066C461.621 254.313 461.799 254.503 462.03 254.638C462.26 254.773 462.437 254.79 462.561 254.69C462.687 254.591 462.751 254.4 462.751 254.117ZM466.435 254.839L466.435 256.138L467.215 256.594L467.215 257.629L466.435 257.173L466.435 259.81C466.435 260.005 466.468 260.164 466.532 260.286C466.597 260.409 466.721 260.523 466.903 260.63C467.038 260.709 467.158 260.767 467.262 260.805L467.262 261.875C467.023 261.82 466.777 261.718 466.524 261.571C465.669 261.071 465.234 260.317 465.217 259.308L465.217 256.461L464.551 256.072L464.551 255.037L465.217 255.426L465.217 254.127L466.435 254.839ZM472.004 262.082C472.004 262.929 471.848 263.498 471.536 263.791C471.225 264.081 470.789 264.063 470.23 263.736C469.735 263.447 469.34 262.996 469.045 262.384L468.99 262.914L467.894 262.273L467.894 254.773L469.112 255.485L469.112 258.176C469.393 257.959 469.763 257.985 470.221 258.252C470.778 258.578 471.213 259.07 471.528 259.729C471.846 260.386 472.004 261.145 472.004 262.004L472.004 262.082ZM470.786 261.268C470.786 260.734 470.713 260.302 470.567 259.973C470.421 259.64 470.203 259.389 469.913 259.22C469.526 258.993 469.259 259.021 469.112 259.304L469.112 261.389C469.261 261.847 469.531 262.19 469.922 262.418C470.315 262.648 470.574 262.575 470.698 262.198C470.757 262.017 470.786 261.707 470.786 261.268ZM475.668 266.816L474.45 266.104L474.45 260.665L472.995 260.337L472.995 259.19L475.537 259.62L475.668 259.697L475.668 266.816Z" fill="black"/>
<path d="M494.614 276.055C494.313 276.303 493.897 276.271 493.366 275.961C492.877 275.675 492.503 275.294 492.245 274.817C491.989 274.342 491.858 273.789 491.852 273.158L491.852 269.696L493.071 270.408L493.071 273.821C493.071 274.371 493.287 274.772 493.72 275.025C494.133 275.267 494.417 275.266 494.572 275.025L494.572 271.285L495.794 271.999L495.794 277.282L494.648 276.612L494.614 276.055ZM499.083 276.728L496.709 275.341L496.709 274.203L499.083 275.59L499.083 276.728ZM502.97 281.475L501.751 280.763L501.751 275.323L500.297 274.996L500.297 273.849L502.839 274.279L502.97 274.356L502.97 281.475ZM508.969 279.76C508.969 280.105 508.894 280.368 508.746 280.548C508.597 280.728 508.391 280.821 508.13 280.828C508.428 281.168 508.664 281.535 508.838 281.93C509.013 282.322 509.1 282.714 509.1 283.108C509.1 283.74 508.914 284.131 508.543 284.282C508.172 284.43 507.668 284.317 507.03 283.945C506.392 283.572 505.886 283.092 505.512 282.506C505.138 281.92 504.951 281.313 504.951 280.684C504.951 280.29 505.038 279.998 505.213 279.807C505.387 279.616 505.622 279.525 505.917 279.535C505.655 279.222 505.45 278.889 505.301 278.535C505.155 278.183 505.082 277.834 505.082 277.489C505.082 276.884 505.256 276.504 505.605 276.349C505.953 276.192 506.427 276.288 507.025 276.637C507.621 276.986 508.093 277.441 508.442 278.002C508.793 278.562 508.969 279.148 508.969 279.76ZM507.877 282.291C507.877 281.982 507.8 281.689 507.645 281.414C507.491 281.138 507.283 280.923 507.021 280.771C506.763 280.62 506.556 280.592 506.401 280.687C506.247 280.779 506.17 280.981 506.17 281.294C506.17 281.596 506.245 281.885 506.397 282.159C506.549 282.433 506.76 282.649 507.03 282.807C507.294 282.961 507.5 282.992 507.649 282.9C507.801 282.81 507.877 282.607 507.877 282.291ZM507.751 279.117C507.751 278.84 507.687 278.582 507.561 278.342C507.434 278.099 507.256 277.91 507.025 277.775C506.798 277.642 506.621 277.62 506.494 277.709C506.368 277.798 506.305 277.985 506.305 278.272C506.305 278.555 506.368 278.82 506.494 279.066C506.621 279.313 506.799 279.503 507.03 279.638C507.26 279.773 507.437 279.79 507.561 279.69C507.687 279.591 507.751 279.4 507.751 279.117ZM511.435 279.839L511.435 281.138L512.215 281.594L512.215 282.629L511.435 282.173L511.435 284.81C511.435 285.005 511.468 285.164 511.532 285.286C511.597 285.409 511.721 285.523 511.903 285.63C512.038 285.709 512.158 285.767 512.262 285.805L512.262 286.875C512.023 286.82 511.777 286.718 511.524 286.571C510.669 286.071 510.234 285.317 510.217 284.308L510.217 281.461L509.551 281.072L509.551 280.037L510.217 280.426L510.217 279.127L511.435 279.839ZM517.004 287.082C517.004 287.929 516.848 288.498 516.536 288.791C516.225 289.081 515.789 289.063 515.23 288.736C514.735 288.447 514.34 287.996 514.045 287.384L513.99 287.914L512.894 287.273L512.894 279.773L514.112 280.485L514.112 283.176C514.393 282.959 514.763 282.985 515.221 283.252C515.778 283.578 516.213 284.07 516.528 284.729C516.846 285.386 517.004 286.145 517.004 287.004L517.004 287.082ZM515.786 286.268C515.786 285.734 515.713 285.302 515.567 284.973C515.421 284.64 515.203 284.389 514.913 284.22C514.526 283.993 514.259 284.021 514.112 284.304L514.112 286.389C514.261 286.847 514.531 287.19 514.922 287.418C515.315 287.648 515.574 287.575 515.698 287.198C515.757 287.017 515.786 286.707 515.786 286.268ZM520.668 291.816L519.45 291.104L519.45 285.665L517.995 285.337L517.995 284.19L520.537 284.62L520.668 284.697L520.668 291.816Z" fill="black"/>
</svg>
