<svg width="1170" height="703" viewBox="0 0 1170 703" fill="none" xmlns="http://www.w3.org/2000/svg">
<path d="M592.933 331.967C592.857 333.146 592.466 333.881 591.76 334.172C591.058 334.465 590.132 334.275 588.981 333.603C587.721 332.867 586.73 331.798 586.006 330.396C585.286 328.991 584.927 327.432 584.927 325.718L584.927 325.023C584.927 323.929 585.093 323.063 585.426 322.424C585.759 321.785 586.233 321.424 586.849 321.342C587.47 321.256 588.189 321.453 589.008 321.931C590.141 322.593 591.054 323.478 591.746 324.586C592.439 325.694 592.839 326.914 592.947 328.248L590.923 327.066C590.874 326.303 590.696 325.668 590.39 325.161C590.089 324.651 589.628 324.215 589.008 323.853C588.333 323.459 587.827 323.444 587.49 323.81C587.157 324.173 586.986 324.94 586.977 326.112L586.977 326.971C586.977 328.2 587.137 329.192 587.456 329.946C587.78 330.703 588.288 331.284 588.981 331.689C589.606 332.054 590.071 332.162 590.377 332.012C590.687 331.86 590.865 331.451 590.91 330.785L592.933 331.967ZM594.343 330.986L594.91 325.536L600.414 328.752L600.414 330.635L596.509 328.353L596.266 330.656C596.729 330.64 597.221 330.785 597.743 331.09C598.678 331.636 599.411 332.4 599.942 333.382C600.473 334.364 600.738 335.459 600.738 336.668C600.738 337.402 600.603 337.982 600.333 338.408C600.068 338.831 599.686 339.058 599.186 339.089C598.687 339.115 598.098 338.93 597.419 338.533C596.826 338.186 596.275 337.727 595.767 337.154C595.258 336.575 594.856 335.947 594.559 335.268C594.267 334.592 594.112 333.926 594.094 333.27L596.023 334.397C596.063 334.895 596.205 335.347 596.448 335.755C596.695 336.16 597.017 336.478 597.412 336.709C597.853 336.967 598.193 336.983 598.431 336.757C598.669 336.527 598.788 336.076 598.788 335.404C598.788 334.758 598.651 334.183 598.377 333.679C598.103 333.175 597.714 332.776 597.21 332.481C596.747 332.211 596.371 332.132 596.084 332.245L595.895 332.338L594.343 330.986Z" fill="black"/>
<path d="M637.933 356.967C637.857 358.146 637.466 358.881 636.76 359.172C636.058 359.465 635.132 359.275 633.981 358.603C632.721 357.867 631.73 356.798 631.006 355.396C630.286 353.991 629.927 352.432 629.927 350.718L629.927 350.023C629.927 348.929 630.093 348.063 630.426 347.424C630.759 346.785 631.233 346.424 631.849 346.342C632.47 346.256 633.189 346.453 634.008 346.931C635.141 347.593 636.054 348.478 636.746 349.586C637.439 350.694 637.839 351.914 637.947 353.248L635.923 352.066C635.874 351.303 635.696 350.668 635.39 350.161C635.089 349.651 634.628 349.215 634.008 348.853C633.333 348.459 632.827 348.444 632.49 348.81C632.157 349.173 631.986 349.94 631.977 351.112L631.977 351.971C631.977 353.2 632.137 354.192 632.456 354.946C632.78 355.703 633.288 356.284 633.981 356.689C634.606 357.054 635.071 357.162 635.377 357.012C635.687 356.86 635.865 356.451 635.91 355.785L637.933 356.967ZM639.343 355.986L639.91 350.536L645.414 353.752L645.414 355.635L641.509 353.353L641.266 355.656C641.729 355.64 642.221 355.785 642.743 356.09C643.678 356.636 644.411 357.4 644.942 358.382C645.473 359.364 645.738 360.459 645.738 361.668C645.738 362.402 645.603 362.982 645.333 363.408C645.068 363.831 644.686 364.058 644.186 364.089C643.687 364.115 643.098 363.93 642.419 363.533C641.826 363.186 641.275 362.727 640.767 362.154C640.258 361.575 639.856 360.947 639.559 360.268C639.267 359.592 639.112 358.926 639.094 358.27L641.023 359.397C641.063 359.895 641.205 360.347 641.448 360.755C641.695 361.16 642.017 361.478 642.412 361.709C642.853 361.967 643.193 361.983 643.431 361.757C643.669 361.527 643.788 361.076 643.788 360.404C643.788 359.758 643.651 359.183 643.377 358.679C643.103 358.175 642.714 357.776 642.21 357.481C641.747 357.211 641.371 357.132 641.084 357.245L640.895 357.338L639.343 355.986Z" fill="black"/>
<path d="M461.933 256.998C461.857 258.178 461.466 258.913 460.76 259.203C460.058 259.497 459.132 259.307 457.981 258.634C456.721 257.898 455.73 256.829 455.006 255.427C454.286 254.022 453.927 252.463 453.927 250.75L453.927 250.054C453.927 248.961 454.093 248.094 454.426 247.456C454.759 246.817 455.233 246.456 455.849 246.373C456.47 246.288 457.189 246.484 458.008 246.962C459.141 247.625 460.054 248.51 460.746 249.617C461.439 250.725 461.839 251.946 461.947 253.28L459.923 252.097C459.874 251.334 459.696 250.699 459.39 250.192C459.089 249.683 458.628 249.247 458.008 248.884C457.333 248.49 456.827 248.476 456.49 248.841C456.157 249.204 455.986 249.971 455.977 251.143L455.977 252.003C455.977 253.232 456.137 254.224 456.456 254.978C456.78 255.735 457.288 256.315 457.981 256.72C458.606 257.085 459.071 257.193 459.377 257.044C459.687 256.892 459.865 256.483 459.91 255.816L461.933 256.998ZM463.343 256.018L463.91 250.567L469.414 253.784L469.414 255.666L465.509 253.384L465.266 255.688C465.729 255.672 466.221 255.816 466.743 256.121C467.678 256.668 468.411 257.432 468.942 258.414C469.473 259.396 469.738 260.491 469.738 261.699C469.738 262.434 469.603 263.014 469.333 263.439C469.068 263.862 468.686 264.09 468.186 264.121C467.687 264.147 467.098 263.962 466.419 263.565C465.826 263.218 465.275 262.758 464.767 262.185C464.258 261.607 463.856 260.979 463.559 260.3C463.267 259.624 463.112 258.958 463.094 258.301L465.023 259.429C465.063 259.926 465.205 260.379 465.448 260.786C465.695 261.191 466.017 261.509 466.412 261.741C466.853 261.998 467.193 262.014 467.431 261.789C467.669 261.558 467.788 261.107 467.788 260.435C467.788 259.789 467.651 259.214 467.377 258.71C467.103 258.206 466.714 257.807 466.21 257.513C465.747 257.242 465.371 257.164 465.084 257.277L464.895 257.369L463.343 256.018Z" fill="black"/>
<path d="M506.933 281.967C506.857 283.146 506.466 283.881 505.76 284.172C505.058 284.465 504.132 284.275 502.981 283.603C501.721 282.867 500.73 281.798 500.006 280.396C499.286 278.991 498.927 277.432 498.927 275.718L498.927 275.023C498.927 273.929 499.093 273.063 499.426 272.424C499.759 271.785 500.233 271.424 500.849 271.342C501.47 271.256 502.189 271.453 503.008 271.931C504.141 272.593 505.054 273.478 505.746 274.586C506.439 275.694 506.839 276.914 506.947 278.248L504.923 277.066C504.874 276.303 504.696 275.668 504.39 275.161C504.089 274.651 503.628 274.215 503.008 273.853C502.333 273.459 501.827 273.444 501.49 273.81C501.157 274.173 500.986 274.94 500.977 276.112L500.977 276.971C500.977 278.2 501.137 279.192 501.456 279.946C501.78 280.703 502.288 281.284 502.981 281.689C503.606 282.054 504.071 282.162 504.377 282.012C504.687 281.86 504.865 281.451 504.91 280.785L506.933 281.967ZM508.343 280.986L508.91 275.536L514.414 278.752L514.414 280.635L510.509 278.353L510.266 280.656C510.729 280.64 511.221 280.785 511.743 281.09C512.678 281.636 513.411 282.4 513.942 283.382C514.473 284.364 514.738 285.459 514.738 286.668C514.738 287.402 514.603 287.982 514.333 288.408C514.068 288.831 513.686 289.058 513.186 289.089C512.687 289.115 512.098 288.93 511.419 288.533C510.826 288.186 510.275 287.727 509.767 287.154C509.258 286.575 508.856 285.947 508.559 285.268C508.267 284.592 508.112 283.926 508.094 283.27L510.023 284.397C510.063 284.895 510.205 285.347 510.448 285.755C510.695 286.16 511.017 286.478 511.412 286.709C511.853 286.967 512.193 286.983 512.431 286.757C512.669 286.527 512.788 286.076 512.788 285.404C512.788 284.758 512.651 284.183 512.377 283.679C512.103 283.175 511.714 282.776 511.21 282.481C510.747 282.211 510.371 282.132 510.084 282.245L509.895 282.338L508.343 280.986Z" fill="black"/>
</svg>
