<svg width="1170" height="703" viewBox="0 0 1170 703" fill="none" xmlns="http://www.w3.org/2000/svg">
<path d="M580.504 342.042L576.297 339.583L576.297 338.616L578.282 337.325C578.555 337.14 578.756 336.956 578.885 336.774C579.017 336.594 579.083 336.389 579.083 336.158C579.083 335.842 579.015 335.554 578.877 335.295C578.739 335.032 578.542 334.826 578.287 334.677C578.011 334.516 577.793 334.499 577.633 334.627C577.476 334.753 577.397 334.995 577.397 335.353L576.175 334.639C576.175 334.206 576.263 333.862 576.44 333.607C576.62 333.354 576.873 333.222 577.199 333.211C577.525 333.196 577.895 333.31 578.308 333.551C578.94 333.921 579.431 334.383 579.779 334.938C580.13 335.495 580.306 336.094 580.306 336.735C580.306 337.087 580.227 337.399 580.07 337.672C579.913 337.944 579.643 338.211 579.261 338.473L577.865 339.362L580.504 340.904L580.504 342.042ZM584.859 341.911L585.555 342.317L585.555 343.455L584.859 343.048L584.859 344.586L583.641 343.874L583.641 342.336L581.124 340.866L581.069 339.945L583.628 336.758L584.859 337.477L584.859 341.911ZM582.283 340.405L583.641 341.199L583.641 338.689L583.561 338.803L582.283 340.405ZM588 342.715L588.767 341.587L590.07 342.348L588.772 344.177L590.125 347.663L588.818 346.899L588.004 344.764L587.195 345.951L585.884 345.185L587.237 343.28L585.943 339.936L587.25 340.7L588 342.715ZM591.942 348.725L590.719 348.01L590.719 340.51L591.942 341.225L591.942 348.725ZM595.593 350.858C595.537 350.698 595.496 350.517 595.471 350.313C595.176 350.521 594.792 350.488 594.32 350.212C593.873 349.951 593.502 349.584 593.207 349.112C592.914 348.642 592.768 348.179 592.768 347.723C592.768 347.163 592.947 346.838 593.304 346.747C593.663 346.658 594.182 346.809 594.859 347.202L595.42 347.529L595.42 347.227C595.42 346.983 595.365 346.755 595.256 346.545C595.149 346.336 594.979 346.163 594.746 346.027C594.54 345.907 594.379 345.87 594.261 345.915C594.145 345.961 594.088 346.084 594.088 346.282L592.869 345.57C592.869 345.264 592.951 345.029 593.114 344.864C593.277 344.698 593.507 344.63 593.805 344.657C594.103 344.682 594.438 344.802 594.809 345.019C595.371 345.347 595.816 345.772 596.145 346.293C596.477 346.812 596.643 347.368 596.643 347.961L596.643 350.251C596.645 350.754 596.706 351.168 596.824 351.494L596.824 351.577L595.593 350.858ZM594.585 349.288C594.765 349.393 594.931 349.444 595.083 349.442C595.235 349.436 595.347 349.376 595.42 349.263L595.42 348.355L594.965 348.089C594.355 347.732 594.03 347.787 593.991 348.252L593.987 348.333C593.987 348.508 594.04 348.684 594.147 348.861C594.254 349.037 594.4 349.179 594.585 349.288ZM600.142 349.556C599.976 349.433 599.83 349.335 599.703 349.261C599.242 348.991 598.94 348.996 598.797 349.273L598.797 352.73L597.579 352.018L597.579 346.735L598.73 347.408L598.763 348.057C599.008 347.715 599.346 347.67 599.779 347.923C599.914 348.002 600.041 348.097 600.159 348.208L600.142 349.556ZM600.471 351.027C600.471 350.217 600.637 349.661 600.968 349.36C601.303 349.061 601.752 349.076 602.317 349.406C602.818 349.698 603.207 350.125 603.485 350.684L603.536 350.216L604.64 350.861L604.64 355.969C604.64 356.431 604.549 356.779 604.366 357.015C604.186 357.251 603.932 357.363 603.603 357.35C603.274 357.337 602.889 357.201 602.448 356.943C602.113 356.748 601.787 356.479 601.47 356.138C601.152 355.799 600.912 355.46 600.749 355.121L601.289 354.577C601.592 355.148 601.96 355.56 602.393 355.813C602.716 356.002 602.968 356.048 603.148 355.951C603.328 355.858 603.418 355.627 603.418 355.259L603.418 354.976C603.137 355.179 602.767 355.147 602.309 354.88C601.761 354.56 601.317 354.053 600.977 353.359C600.639 352.664 600.471 351.906 600.471 351.086L600.471 351.027ZM601.689 351.842C601.689 352.32 601.772 352.745 601.938 353.115C602.104 353.482 602.331 353.75 602.621 353.919C602.992 354.136 603.257 354.13 603.418 353.902L603.418 351.68C603.255 351.262 602.992 350.948 602.629 350.736C602.337 350.565 602.106 350.569 601.938 350.747C601.772 350.927 601.689 351.292 601.689 351.842ZM607.68 358.018C607.011 357.627 606.466 357.071 606.044 356.349C605.625 355.629 605.416 354.874 605.416 354.083L605.416 353.946C605.416 353.416 605.504 352.994 605.682 352.681C605.859 352.364 606.109 352.188 606.432 352.152C606.758 352.115 607.129 352.218 607.545 352.461C608.169 352.825 608.659 353.34 609.016 354.004C609.376 354.67 609.556 355.421 609.556 356.258L609.556 356.834L606.651 355.137C606.691 355.505 606.809 355.85 607.005 356.174C607.205 356.499 607.456 356.75 607.76 356.927C608.229 357.201 608.596 357.219 608.86 356.979L609.459 358.105C609.276 358.298 609.029 358.388 608.717 358.375C608.405 358.359 608.059 358.24 607.68 358.018ZM607.541 353.601C607.299 353.46 607.102 353.439 606.951 353.539C606.802 353.641 606.706 353.855 606.664 354.182L608.359 355.172L608.359 355.06C608.353 354.744 608.28 354.461 608.139 354.209C607.999 353.955 607.799 353.752 607.541 353.601Z" fill="black"/>
<path d="M625.504 367.042L621.297 364.583L621.297 363.616L623.282 362.325C623.555 362.14 623.756 361.956 623.885 361.774C624.017 361.594 624.083 361.389 624.083 361.158C624.083 360.842 624.015 360.554 623.877 360.295C623.739 360.032 623.542 359.826 623.287 359.677C623.011 359.516 622.793 359.499 622.633 359.627C622.476 359.753 622.397 359.995 622.397 360.353L621.175 359.639C621.175 359.206 621.263 358.862 621.44 358.607C621.62 358.354 621.873 358.222 622.199 358.211C622.525 358.196 622.895 358.31 623.308 358.551C623.94 358.921 624.431 359.383 624.779 359.938C625.13 360.495 625.306 361.094 625.306 361.735C625.306 362.087 625.227 362.399 625.07 362.672C624.913 362.944 624.643 363.211 624.261 363.473L622.865 364.362L625.504 365.904L625.504 367.042ZM629.859 366.911L630.555 367.317L630.555 368.455L629.859 368.048L629.859 369.586L628.641 368.874L628.641 367.336L626.124 365.866L626.069 364.945L628.628 361.758L629.859 362.477L629.859 366.911ZM627.283 365.405L628.641 366.199L628.641 363.689L628.561 363.803L627.283 365.405ZM633 367.715L633.767 366.587L635.07 367.348L633.772 369.177L635.125 372.663L633.818 371.899L633.004 369.764L632.195 370.951L630.884 370.185L632.237 368.28L630.943 364.936L632.25 365.7L633 367.715ZM636.942 373.725L635.719 373.01L635.719 365.51L636.942 366.225L636.942 373.725ZM640.593 375.858C640.537 375.698 640.496 375.517 640.471 375.313C640.176 375.521 639.792 375.488 639.32 375.212C638.873 374.951 638.502 374.584 638.207 374.112C637.914 373.642 637.768 373.179 637.768 372.723C637.768 372.163 637.947 371.838 638.304 371.747C638.663 371.658 639.182 371.809 639.859 372.202L640.42 372.529L640.42 372.227C640.42 371.983 640.365 371.755 640.256 371.545C640.149 371.336 639.979 371.163 639.746 371.027C639.54 370.907 639.379 370.87 639.261 370.915C639.145 370.961 639.088 371.084 639.088 371.282L637.869 370.57C637.869 370.264 637.951 370.029 638.114 369.864C638.277 369.698 638.507 369.63 638.805 369.657C639.103 369.682 639.438 369.802 639.809 370.019C640.371 370.347 640.816 370.772 641.145 371.293C641.477 371.812 641.643 372.368 641.643 372.961L641.643 375.251C641.645 375.754 641.706 376.168 641.824 376.494L641.824 376.577L640.593 375.858ZM639.585 374.288C639.765 374.393 639.931 374.444 640.083 374.442C640.235 374.436 640.347 374.376 640.42 374.263L640.42 373.355L639.965 373.089C639.355 372.732 639.03 372.787 638.991 373.252L638.987 373.333C638.987 373.508 639.04 373.684 639.147 373.861C639.254 374.037 639.4 374.179 639.585 374.288ZM645.142 374.556C644.976 374.433 644.83 374.335 644.703 374.261C644.242 373.991 643.94 373.996 643.797 374.273L643.797 377.73L642.579 377.018L642.579 371.735L643.73 372.408L643.763 373.057C644.008 372.715 644.346 372.67 644.779 372.923C644.914 373.002 645.041 373.097 645.159 373.208L645.142 374.556ZM645.471 376.027C645.471 375.217 645.637 374.661 645.968 374.36C646.303 374.061 646.752 374.076 647.317 374.406C647.818 374.698 648.207 375.125 648.485 375.684L648.536 375.216L649.64 375.861L649.64 380.969C649.64 381.431 649.549 381.779 649.366 382.015C649.186 382.251 648.932 382.363 648.603 382.35C648.274 382.337 647.889 382.201 647.448 381.943C647.113 381.748 646.787 381.479 646.47 381.138C646.152 380.799 645.912 380.46 645.749 380.121L646.289 379.577C646.592 380.148 646.96 380.56 647.393 380.813C647.716 381.002 647.968 381.048 648.148 380.951C648.328 380.858 648.418 380.627 648.418 380.259L648.418 379.976C648.137 380.179 647.767 380.147 647.309 379.88C646.761 379.56 646.317 379.053 645.977 378.359C645.639 377.664 645.471 376.906 645.471 376.086L645.471 376.027ZM646.689 376.842C646.689 377.32 646.772 377.745 646.938 378.115C647.104 378.482 647.331 378.75 647.621 378.919C647.992 379.136 648.257 379.13 648.418 378.902L648.418 376.68C648.255 376.262 647.992 375.948 647.629 375.736C647.337 375.565 647.106 375.569 646.938 375.747C646.772 375.927 646.689 376.292 646.689 376.842ZM652.68 383.018C652.011 382.627 651.466 382.071 651.044 381.349C650.625 380.629 650.416 379.874 650.416 379.083L650.416 378.946C650.416 378.416 650.504 377.994 650.682 377.681C650.859 377.364 651.109 377.188 651.432 377.152C651.758 377.115 652.129 377.218 652.545 377.461C653.169 377.825 653.659 378.34 654.016 379.004C654.376 379.67 654.556 380.421 654.556 381.258L654.556 381.834L651.651 380.137C651.691 380.505 651.809 380.85 652.005 381.174C652.205 381.499 652.456 381.75 652.76 381.927C653.229 382.201 653.596 382.219 653.86 381.979L654.459 383.105C654.276 383.298 654.029 383.388 653.717 383.375C653.405 383.359 653.059 383.24 652.68 383.018ZM652.541 378.601C652.299 378.46 652.102 378.439 651.951 378.539C651.802 378.641 651.706 378.855 651.664 379.182L653.359 380.172L653.359 380.06C653.353 379.744 653.28 379.461 653.139 379.209C652.999 378.955 652.799 378.752 652.541 378.601Z" fill="black"/>
<path d="M449.504 267.042L445.297 264.583L445.297 263.616L447.282 262.325C447.555 262.14 447.756 261.956 447.885 261.774C448.017 261.594 448.084 261.389 448.084 261.158C448.084 260.842 448.015 260.554 447.877 260.295C447.739 260.032 447.542 259.826 447.287 259.677C447.011 259.516 446.793 259.499 446.633 259.627C446.476 259.753 446.397 259.995 446.397 260.353L445.175 259.639C445.175 259.206 445.263 258.862 445.44 258.607C445.62 258.354 445.873 258.222 446.199 258.211C446.525 258.196 446.895 258.31 447.308 258.551C447.94 258.921 448.431 259.383 448.779 259.938C449.13 260.495 449.306 261.094 449.306 261.735C449.306 262.087 449.227 262.399 449.07 262.672C448.913 262.944 448.643 263.211 448.261 263.473L446.865 264.362L449.504 265.904L449.504 267.042ZM453.859 266.911L454.555 267.317L454.555 268.455L453.859 268.048L453.859 269.586L452.641 268.874L452.641 267.336L450.124 265.866L450.069 264.945L452.628 261.758L453.859 262.477L453.859 266.911ZM451.283 265.405L452.641 266.199L452.641 263.689L452.561 263.803L451.283 265.405ZM457 267.715L457.767 266.587L459.07 267.348L457.772 269.177L459.125 272.663L457.818 271.899L457.004 269.764L456.195 270.951L454.884 270.185L456.237 268.28L454.943 264.936L456.25 265.7L457 267.715ZM460.942 273.725L459.719 273.01L459.719 265.51L460.942 266.225L460.942 273.725ZM464.593 275.858C464.537 275.698 464.496 275.517 464.471 275.313C464.176 275.521 463.792 275.488 463.32 275.212C462.873 274.951 462.502 274.584 462.207 274.112C461.914 273.642 461.768 273.179 461.768 272.723C461.768 272.163 461.947 271.838 462.304 271.747C462.663 271.658 463.182 271.809 463.859 272.202L464.42 272.529L464.42 272.227C464.42 271.983 464.365 271.755 464.256 271.545C464.149 271.336 463.979 271.163 463.746 271.027C463.54 270.907 463.379 270.87 463.261 270.915C463.145 270.961 463.088 271.084 463.088 271.282L461.869 270.57C461.869 270.264 461.951 270.029 462.114 269.864C462.277 269.698 462.507 269.63 462.805 269.657C463.103 269.682 463.438 269.802 463.809 270.019C464.371 270.347 464.816 270.772 465.145 271.293C465.477 271.812 465.643 272.368 465.643 272.961L465.643 275.251C465.646 275.754 465.706 276.168 465.824 276.494L465.824 276.577L464.593 275.858ZM463.585 274.288C463.765 274.393 463.931 274.444 464.083 274.442C464.235 274.436 464.347 274.376 464.42 274.263L464.42 273.355L463.965 273.089C463.355 272.732 463.03 272.787 462.991 273.252L462.987 273.333C462.987 273.508 463.04 273.684 463.147 273.861C463.254 274.037 463.4 274.179 463.585 274.288ZM469.142 274.556C468.976 274.433 468.83 274.335 468.703 274.261C468.242 273.991 467.94 273.996 467.797 274.273L467.797 277.73L466.579 277.018L466.579 271.735L467.73 272.408L467.763 273.057C468.008 272.715 468.346 272.67 468.779 272.923C468.914 273.002 469.041 273.097 469.159 273.208L469.142 274.556ZM469.471 276.027C469.471 275.217 469.637 274.661 469.968 274.36C470.303 274.061 470.752 274.076 471.317 274.406C471.818 274.698 472.207 275.125 472.485 275.684L472.536 275.216L473.64 275.861L473.64 280.969C473.64 281.431 473.549 281.779 473.366 282.015C473.186 282.251 472.932 282.363 472.603 282.35C472.274 282.337 471.889 282.201 471.448 281.943C471.114 281.748 470.787 281.479 470.47 281.138C470.152 280.799 469.912 280.46 469.749 280.121L470.289 279.577C470.592 280.148 470.96 280.56 471.393 280.813C471.716 281.002 471.968 281.048 472.148 280.951C472.328 280.858 472.418 280.627 472.418 280.259L472.418 279.976C472.137 280.179 471.767 280.147 471.309 279.88C470.761 279.56 470.317 279.053 469.977 278.359C469.639 277.664 469.471 276.906 469.471 276.086L469.471 276.027ZM470.689 276.842C470.689 277.32 470.772 277.745 470.938 278.115C471.104 278.482 471.331 278.75 471.621 278.919C471.992 279.136 472.257 279.13 472.418 278.902L472.418 276.68C472.255 276.262 471.992 275.948 471.629 275.736C471.337 275.565 471.106 275.569 470.938 275.747C470.772 275.927 470.689 276.292 470.689 276.842ZM476.68 283.018C476.011 282.627 475.466 282.071 475.044 281.349C474.625 280.629 474.416 279.874 474.416 279.083L474.416 278.946C474.416 278.416 474.505 277.994 474.682 277.681C474.859 277.364 475.109 277.188 475.432 277.152C475.758 277.115 476.129 277.218 476.545 277.461C477.169 277.825 477.659 278.34 478.016 279.004C478.376 279.67 478.556 280.421 478.556 281.258L478.556 281.834L475.651 280.137C475.691 280.505 475.809 280.85 476.005 281.174C476.205 281.499 476.456 281.75 476.76 281.927C477.229 282.201 477.596 282.219 477.86 281.979L478.459 283.105C478.276 283.298 478.029 283.388 477.717 283.375C477.405 283.359 477.059 283.24 476.68 283.018ZM476.541 278.601C476.299 278.46 476.102 278.439 475.951 278.539C475.802 278.641 475.706 278.855 475.664 279.182L477.359 280.172L477.359 280.06C477.353 279.744 477.28 279.461 477.139 279.209C476.999 278.955 476.799 278.752 476.541 278.601Z" fill="black"/>
<path d="M494.504 292.042L490.297 289.583L490.297 288.616L492.282 287.325C492.555 287.14 492.756 286.956 492.885 286.774C493.017 286.594 493.084 286.389 493.084 286.158C493.084 285.842 493.015 285.554 492.877 285.295C492.739 285.032 492.542 284.826 492.287 284.677C492.011 284.516 491.793 284.499 491.633 284.627C491.476 284.753 491.397 284.995 491.397 285.353L490.175 284.639C490.175 284.206 490.263 283.862 490.44 283.607C490.62 283.354 490.873 283.222 491.199 283.211C491.525 283.196 491.895 283.31 492.308 283.551C492.94 283.921 493.431 284.383 493.779 284.938C494.13 285.495 494.306 286.094 494.306 286.735C494.306 287.087 494.227 287.399 494.07 287.672C493.913 287.944 493.643 288.211 493.261 288.473L491.865 289.362L494.504 290.904L494.504 292.042ZM498.859 291.911L499.555 292.317L499.555 293.455L498.859 293.048L498.859 294.586L497.641 293.874L497.641 292.336L495.124 290.866L495.069 289.945L497.628 286.758L498.859 287.477L498.859 291.911ZM496.283 290.405L497.641 291.199L497.641 288.689L497.561 288.803L496.283 290.405ZM502 292.715L502.767 291.587L504.07 292.348L502.772 294.177L504.125 297.663L502.818 296.899L502.004 294.764L501.195 295.951L499.884 295.185L501.237 293.28L499.943 289.936L501.25 290.7L502 292.715ZM505.942 298.725L504.719 298.01L504.719 290.51L505.942 291.225L505.942 298.725ZM509.593 300.858C509.537 300.698 509.496 300.517 509.471 300.313C509.176 300.521 508.792 300.488 508.32 300.212C507.873 299.951 507.502 299.584 507.207 299.112C506.914 298.642 506.768 298.179 506.768 297.723C506.768 297.163 506.947 296.838 507.304 296.747C507.663 296.658 508.182 296.809 508.859 297.202L509.42 297.529L509.42 297.227C509.42 296.983 509.365 296.755 509.256 296.545C509.149 296.336 508.979 296.163 508.746 296.027C508.54 295.907 508.379 295.87 508.261 295.915C508.145 295.961 508.088 296.084 508.088 296.282L506.869 295.57C506.869 295.264 506.951 295.029 507.114 294.864C507.277 294.698 507.507 294.63 507.805 294.657C508.103 294.682 508.438 294.802 508.809 295.019C509.371 295.347 509.816 295.772 510.145 296.293C510.477 296.812 510.643 297.368 510.643 297.961L510.643 300.251C510.646 300.754 510.706 301.168 510.824 301.494L510.824 301.577L509.593 300.858ZM508.585 299.288C508.765 299.393 508.931 299.444 509.083 299.442C509.235 299.436 509.347 299.376 509.42 299.263L509.42 298.355L508.965 298.089C508.355 297.732 508.03 297.787 507.991 298.252L507.987 298.333C507.987 298.508 508.04 298.684 508.147 298.861C508.254 299.037 508.4 299.179 508.585 299.288ZM514.142 299.556C513.976 299.433 513.83 299.335 513.703 299.261C513.242 298.991 512.94 298.996 512.797 299.273L512.797 302.73L511.579 302.018L511.579 296.735L512.73 297.408L512.763 298.057C513.008 297.715 513.346 297.67 513.779 297.923C513.914 298.002 514.041 298.097 514.159 298.208L514.142 299.556ZM514.471 301.027C514.471 300.217 514.637 299.661 514.968 299.36C515.303 299.061 515.752 299.076 516.317 299.406C516.818 299.698 517.207 300.125 517.485 300.684L517.536 300.216L518.64 300.861L518.64 305.969C518.64 306.431 518.549 306.779 518.366 307.015C518.186 307.251 517.932 307.363 517.603 307.35C517.274 307.337 516.889 307.201 516.448 306.943C516.114 306.748 515.787 306.479 515.47 306.138C515.152 305.799 514.912 305.46 514.749 305.121L515.289 304.577C515.592 305.148 515.96 305.56 516.393 305.813C516.716 306.002 516.968 306.048 517.148 305.951C517.328 305.858 517.418 305.627 517.418 305.259L517.418 304.976C517.137 305.179 516.767 305.147 516.309 304.88C515.761 304.56 515.317 304.053 514.977 303.359C514.639 302.664 514.471 301.906 514.471 301.086L514.471 301.027ZM515.689 301.842C515.689 302.32 515.772 302.745 515.938 303.115C516.104 303.482 516.331 303.75 516.621 303.919C516.992 304.136 517.257 304.13 517.418 303.902L517.418 301.68C517.255 301.262 516.992 300.948 516.629 300.736C516.337 300.565 516.106 300.569 515.938 300.747C515.772 300.927 515.689 301.292 515.689 301.842ZM521.68 308.018C521.011 307.627 520.466 307.071 520.044 306.349C519.625 305.629 519.416 304.874 519.416 304.083L519.416 303.946C519.416 303.416 519.505 302.994 519.682 302.681C519.859 302.364 520.109 302.188 520.432 302.152C520.758 302.115 521.129 302.218 521.545 302.461C522.169 302.825 522.659 303.34 523.016 304.004C523.376 304.67 523.556 305.421 523.556 306.258L523.556 306.834L520.651 305.137C520.691 305.505 520.809 305.85 521.005 306.174C521.205 306.499 521.456 306.75 521.76 306.927C522.229 307.201 522.596 307.219 522.86 306.979L523.459 308.105C523.276 308.298 523.029 308.388 522.717 308.375C522.405 308.359 522.059 308.24 521.68 308.018ZM521.541 303.601C521.299 303.46 521.102 303.439 520.951 303.539C520.802 303.641 520.706 303.855 520.664 304.182L522.359 305.172L522.359 305.06C522.353 304.744 522.28 304.461 522.139 304.209C521.999 303.955 521.799 303.752 521.541 303.601Z" fill="black"/>
</svg>
