<svg width="1170" height="703" viewBox="0 0 1170 703" fill="none" xmlns="http://www.w3.org/2000/svg">
<path d="M592.805 334.244C592.441 334.536 591.926 334.628 591.261 334.521C590.595 334.408 589.858 334.115 589.048 333.642C588.198 333.145 587.452 332.496 586.809 331.693C586.17 330.888 585.675 329.973 585.325 328.951C584.978 327.931 584.801 326.866 584.792 325.757L584.792 324.983C584.792 323.848 584.956 322.962 585.284 322.326C585.617 321.687 586.094 321.33 586.714 321.255C587.339 321.177 588.07 321.383 588.906 321.872C590.071 322.552 590.982 323.407 591.638 324.437C592.295 325.461 592.684 326.623 592.805 327.923L590.836 326.772C590.746 326.069 590.546 325.475 590.235 324.992C589.929 324.511 589.507 324.113 588.967 323.798C588.279 323.396 587.755 323.389 587.395 323.778C587.036 324.167 586.854 324.951 586.849 326.131L586.849 326.857C586.849 328.05 587.045 329.065 587.436 329.903C587.827 330.741 588.401 331.381 589.156 331.822C589.916 332.266 590.458 332.396 590.782 332.21L590.782 330.249L588.94 329.173L588.94 327.446L592.805 329.705L592.805 334.244ZM600.009 335.609L601.122 336.26L601.122 338.08L600.009 337.43L600.009 339.891L598.06 338.751L598.06 336.291L594.033 333.938L593.945 332.464L598.04 327.365L600.009 328.516L600.009 335.609ZM595.888 333.201L598.06 334.47L598.06 330.455L597.932 330.638L595.888 333.201Z" fill="black"/>
<path d="M637.805 359.244C637.441 359.536 636.926 359.628 636.261 359.521C635.595 359.408 634.858 359.115 634.048 358.642C633.198 358.145 632.452 357.496 631.809 356.693C631.17 355.888 630.675 354.973 630.325 353.951C629.978 352.931 629.801 351.866 629.792 350.757L629.792 349.983C629.792 348.848 629.956 347.962 630.284 347.326C630.617 346.687 631.094 346.33 631.714 346.255C632.339 346.177 633.07 346.383 633.906 346.872C635.071 347.552 635.982 348.407 636.638 349.437C637.295 350.461 637.684 351.623 637.805 352.923L635.836 351.772C635.746 351.069 635.546 350.475 635.235 349.992C634.929 349.511 634.507 349.113 633.967 348.798C633.279 348.396 632.755 348.389 632.395 348.778C632.036 349.167 631.854 349.951 631.849 351.131L631.849 351.857C631.849 353.05 632.045 354.065 632.436 354.903C632.827 355.741 633.401 356.381 634.156 356.822C634.916 357.266 635.458 357.396 635.782 357.21L635.782 355.249L633.94 354.173L633.94 352.446L637.805 354.705L637.805 359.244ZM645.009 360.609L646.122 361.26L646.122 363.08L645.009 362.43L645.009 364.891L643.06 363.751L643.06 361.291L639.033 358.938L638.945 357.464L643.04 352.365L645.009 353.516L645.009 360.609ZM640.888 358.201L643.06 359.47L643.06 355.455L642.932 355.638L640.888 358.201Z" fill="black"/>
<path d="M461.805 259.275C461.441 259.568 460.926 259.66 460.261 259.552C459.595 259.439 458.858 259.147 458.048 258.674C457.198 258.177 456.452 257.527 455.809 256.724C455.17 255.919 454.675 255.005 454.325 253.982C453.978 252.962 453.801 251.898 453.792 250.788L453.792 250.015C453.792 248.879 453.956 247.993 454.284 247.357C454.617 246.718 455.094 246.361 455.714 246.286C456.339 246.209 457.07 246.415 457.906 246.903C459.071 247.584 459.982 248.439 460.638 249.468C461.295 250.493 461.684 251.655 461.805 252.955L459.836 251.804C459.746 251.1 459.546 250.507 459.235 250.024C458.929 249.543 458.507 249.145 457.967 248.829C457.279 248.427 456.755 248.421 456.395 248.81C456.036 249.198 455.854 249.982 455.849 251.162L455.849 251.889C455.849 253.081 456.045 254.097 456.436 254.935C456.827 255.773 457.401 256.412 458.156 256.854C458.916 257.298 459.458 257.427 459.782 257.241L459.782 255.28L457.94 254.204L457.94 252.478L461.805 254.736L461.805 259.275ZM469.009 260.641L470.122 261.291L470.122 263.111L469.009 262.461L469.009 264.922L467.06 263.783L467.06 261.322L463.033 258.969L462.945 257.496L467.04 252.396L469.009 253.547L469.009 260.641ZM464.888 258.233L467.06 259.502L467.06 255.486L466.932 255.669L464.888 258.233Z" fill="black"/>
<path d="M506.805 284.244C506.441 284.536 505.926 284.628 505.261 284.521C504.595 284.408 503.858 284.115 503.048 283.642C502.198 283.145 501.452 282.496 500.809 281.693C500.17 280.888 499.675 279.973 499.325 278.951C498.978 277.931 498.801 276.866 498.792 275.757L498.792 274.983C498.792 273.848 498.956 272.962 499.284 272.326C499.617 271.687 500.094 271.33 500.714 271.255C501.339 271.177 502.07 271.383 502.906 271.872C504.071 272.552 504.982 273.407 505.638 274.437C506.295 275.461 506.684 276.623 506.805 277.923L504.836 276.772C504.746 276.069 504.546 275.475 504.235 274.992C503.929 274.511 503.507 274.113 502.967 273.798C502.279 273.396 501.755 273.389 501.395 273.778C501.036 274.167 500.854 274.951 500.849 276.131L500.849 276.857C500.849 278.05 501.045 279.065 501.436 279.903C501.827 280.741 502.401 281.381 503.156 281.822C503.916 282.266 504.458 282.396 504.782 282.21L504.782 280.249L502.94 279.173L502.94 277.446L506.805 279.705L506.805 284.244ZM514.009 285.609L515.122 286.26L515.122 288.08L514.009 287.43L514.009 289.891L512.06 288.751L512.06 286.291L508.033 283.938L507.945 282.464L512.04 277.365L514.009 278.516L514.009 285.609ZM509.888 283.201L512.06 284.47L512.06 280.455L511.932 280.638L509.888 283.201Z" fill="black"/>
</svg>
