<svg width="1170" height="703" viewBox="0 0 1170 703" fill="none" xmlns="http://www.w3.org/2000/svg">
<rect width="2" height="68" transform="matrix(0.866025 0.5 -0.866025 0.5 317.831 465.5)" fill="black"/>
<path d="M303.123 466.992C303.16 466.971 323.907 462.992 323.905 463.007C323.897 463.056 316.989 475.001 316.971 474.997C316.959 474.994 316.068 473.705 314.99 472.134L313.031 469.276L308.087 468.148C305.367 467.527 303.135 467.015 303.126 467.01C303.116 467.004 303.115 466.996 303.123 466.992L303.123 466.992Z" fill="black"/>
</svg>
