<svg width="1170" height="703" viewBox="0 0 1170 703" fill="none" xmlns="http://www.w3.org/2000/svg">
<rect width="302" height="2" transform="matrix(0.866025 0.5 -0.866025 0.5 562.916 174)" fill="black"/>
<rect width="2" height="488" transform="matrix(0.866025 0.5 -0.866025 0.5 681.562 255.5)" fill="black"/>
<path d="M670.318 254.992C670.355 254.971 691.102 250.992 691.1 251.007C691.091 251.056 684.183 263.001 684.166 262.997C684.154 262.994 683.263 261.705 682.185 260.134L680.226 257.276L675.282 256.148C672.562 255.527 670.33 255.015 670.32 255.01C670.311 255.004 670.31 254.996 670.318 254.992L670.318 254.992Z" fill="black"/>
<rect width="2" height="14" transform="matrix(0.866025 0.5 -0.866025 0.5 833.116 318)" fill="black"/>
<path d="M822.738 316.992C822.775 316.971 843.522 312.992 843.52 313.007C843.512 313.056 836.604 325.001 836.586 324.997C836.574 324.994 835.683 323.705 834.606 322.134L832.646 319.276L827.702 318.148C824.983 317.527 822.75 317.015 822.741 317.01C822.732 317.004 822.73 316.996 822.738 316.992L822.738 316.992Z" fill="black"/>
<rect width="2" height="14" transform="matrix(0.866025 0.5 -0.866025 0.5 746.514 268)" fill="black"/>
<path d="M736.136 266.992C736.172 266.971 756.92 262.992 756.917 263.007C756.909 263.056 750.001 275.001 749.983 274.997C749.972 274.994 749.081 273.705 748.003 272.134L746.044 269.276L741.1 268.148C738.38 267.527 736.148 267.015 736.138 267.01C736.129 267.004 736.128 266.996 736.136 266.992L736.136 266.992Z" fill="black"/>
<rect width="2" height="14" transform="matrix(0.866025 0.5 -0.866025 0.5 659.911 218)" fill="black"/>
<path d="M649.533 216.992C649.57 216.971 670.317 212.992 670.315 213.007C670.307 213.056 663.399 225.001 663.381 224.997C663.369 224.994 662.478 223.705 661.401 222.134L659.441 219.276L654.497 218.148C651.778 217.527 649.545 217.015 649.536 217.01C649.527 217.004 649.525 216.996 649.533 216.992L649.533 216.992Z" fill="black"/>
<rect width="2" height="14" transform="matrix(0.866025 0.5 -0.866025 0.5 573.309 168)" fill="black"/>
<path d="M562.931 166.992C562.967 166.971 583.715 162.992 583.712 163.007C583.704 163.056 576.796 175.001 576.778 174.997C576.767 174.994 575.876 173.705 574.798 172.134L572.839 169.276L567.894 168.148C565.175 167.527 562.943 167.015 562.933 167.01C562.924 167.004 562.923 166.996 562.931 166.992L562.931 166.992Z" fill="black"/>
</svg>
