<svg width="1170" height="703" viewBox="0 0 1170 703" fill="none" xmlns="http://www.w3.org/2000/svg">
<path d="M846.781 84.3169L830.918 75H808.446L792.693 84.3169V97.4049L808.666 106.611H831.028L846.891 97.4049L846.781 84.3169Z" fill="#3E8AD1"/>
<path d="M808.775 105.391L792.692 96.0741L792.582 128.683L808.665 138L808.775 105.391Z" fill="#2E72B7"/>
<path d="M830.917 105.058H808.335V137.889H830.917V105.058Z" fill="#215B97"/>
<path d="M846.89 95.9628L830.917 105.28V137.889L847 128.572L846.89 95.9628Z" fill="#1A476F"/>
<path d="M809.546 84.095L811.088 83.3186L812.52 84.095C812.851 84.3169 813.071 84.4278 813.292 84.5387C813.622 84.7605 813.732 84.8714 813.842 84.8714C814.063 85.0933 814.283 85.2042 814.283 85.426C814.283 85.5369 814.173 85.7588 814.063 85.8697C813.842 85.9806 813.622 85.9806 813.402 85.9806C813.181 85.9806 812.851 85.8697 812.631 85.8697C812.41 85.7588 811.749 85.426 810.868 84.9824L809.546 84.095ZM814.613 84.095C814.503 83.9841 814.393 83.9841 814.283 83.8732L810.427 81.6549L804.148 84.6496L806.021 85.6478L808.665 84.4278L808.995 84.6496L809.106 84.7605C809.436 84.9824 809.656 85.0933 809.767 85.2042C809.877 85.3151 809.987 85.5369 810.097 85.6478C810.097 85.7588 810.207 86.0915 810.207 86.6461V88.088L812.41 89.308L812.52 88.088C812.52 87.6443 812.52 87.2007 812.52 86.9788C812.41 86.757 812.3 86.4243 812.08 86.2024C812.961 86.6461 813.732 86.8679 814.503 86.9788C815.164 87.0897 815.825 86.9788 816.266 86.757C816.596 86.5352 816.817 86.3133 816.817 86.0915C816.817 85.7588 816.706 85.5369 816.376 85.2042C815.935 84.9824 815.385 84.5387 814.613 84.095Z" fill="black"/>
<path d="M816.266 90.528L820.342 88.5315L821.223 88.9752C821.443 89.0861 821.553 89.197 821.663 89.197C822.104 89.5297 822.435 89.6407 822.655 89.8625C822.985 90.0843 823.095 90.3062 823.206 90.528C823.316 90.7498 823.316 90.9716 823.095 91.0826C822.985 91.3044 822.655 91.5262 822.214 91.748C821.774 91.9699 821.333 92.0808 820.892 92.1917C820.452 92.3026 820.121 92.3026 819.791 92.1917C819.46 92.1917 819.13 92.0808 818.799 91.859C818.579 91.748 818.138 91.5262 817.588 91.3044L816.266 90.528ZM823.206 88.9752C823.095 88.9752 823.096 88.8643 822.985 88.8643L819.57 86.9787L813.292 89.9734L816.817 91.9699C817.477 92.4135 818.138 92.6354 818.579 92.8572C819.24 93.079 819.791 93.3009 820.342 93.3009C821.003 93.4118 821.774 93.4118 822.435 93.3009C822.985 93.1899 823.536 93.079 824.087 92.8572C824.638 92.5245 825.078 92.3026 825.299 91.9699C825.519 91.6371 825.519 91.3044 825.409 90.9716C825.299 90.6389 825.078 90.3061 824.638 89.8625C824.307 89.6407 823.867 89.4188 823.206 88.9752Z" fill="black"/>
<path d="M832.349 94.0774L832.239 93.9665C831.578 93.5228 830.807 93.301 830.256 93.0791C829.595 92.8573 829.044 92.7464 828.493 92.7464C827.942 92.7464 827.502 92.7464 827.171 92.9682C826.731 93.1901 826.51 93.5228 826.731 94.0774C826.841 94.4101 827.392 94.9647 828.163 95.5193C828.824 95.9629 829.154 96.2957 829.375 96.5175C829.595 96.7393 829.705 96.8502 829.815 97.0721C829.815 97.183 829.815 97.2939 829.595 97.4048C829.375 97.5157 829.044 97.5157 828.493 97.4048C828.053 97.2939 827.502 97.0721 826.841 96.7393C826.841 96.7393 826.841 96.7393 826.731 96.7393C826.18 96.4066 825.849 96.1848 825.739 95.852C825.629 95.6302 825.629 95.2974 825.96 95.0756L824.087 94.0774C823.536 94.521 823.316 94.9647 823.646 95.5193C823.867 96.0738 824.527 96.6284 825.629 97.183C825.629 97.183 825.739 97.183 825.739 97.2939C826.51 97.7376 827.282 98.0703 827.942 98.2921C828.603 98.514 829.264 98.6249 829.925 98.6249C830.476 98.6249 831.027 98.514 831.357 98.403C831.798 98.1812 831.908 97.9594 832.018 97.7376C832.018 97.5157 831.908 97.183 831.688 96.8502C831.467 96.5175 830.917 96.0738 830.146 95.5193C829.375 94.9647 828.934 94.521 828.824 94.2992C828.714 94.1883 828.824 94.0774 828.934 93.9665C829.044 93.8555 829.375 93.8555 829.595 93.9665C830.035 94.0774 830.586 94.2992 831.027 94.521C831.027 94.521 831.027 94.521 831.137 94.521C831.578 94.7429 831.908 95.0756 832.018 95.1865C832.128 95.4083 832.128 95.6302 831.798 95.852L833.671 96.8502C834.221 96.5175 834.332 96.1848 834.111 95.6302C834.001 95.1865 833.34 94.6319 832.349 94.0774Z" fill="black"/>
<path d="M796.829 104.524L799.698 115.409L802.552 107.723L805.575 109.412L805.575 122.209L803.266 120.918L803.266 117.42L803.496 111.511L800.481 119.362L798.9 118.478L795.893 107.27L796.123 113.428L796.123 116.926L793.822 115.639L793.822 102.843L796.829 104.524Z" fill="black"/>
<path d="M933.781 134.317L917.936 125H895.49L879.756 134.317V147.405L895.71 156.611H918.046L933.891 147.405L933.781 134.317Z" fill="#3E8AD1"/>
<path d="M895.819 155.391L879.755 146.074L879.645 178.683L895.709 188L895.819 155.391Z" fill="#2E72B7"/>
<path d="M917.936 155.058H895.379V187.889H917.936V155.058Z" fill="#215B97"/>
<path d="M933.89 145.963L917.935 155.28V187.889L934 178.572L933.89 145.963Z" fill="#1A476F"/>
<path d="M896.59 134.095L898.13 133.319L899.56 134.095C899.891 134.317 900.111 134.428 900.331 134.539C900.661 134.761 900.771 134.871 900.881 134.871C901.101 135.093 901.321 135.204 901.321 135.426C901.321 135.537 901.211 135.759 901.101 135.87C900.881 135.981 900.661 135.981 900.441 135.981C900.221 135.981 899.891 135.87 899.67 135.87C899.45 135.759 898.79 135.426 897.91 134.982L896.59 134.095ZM901.651 134.095C901.541 133.984 901.431 133.984 901.321 133.873L897.47 131.655L891.198 134.65L893.069 135.648L895.709 134.428L896.039 134.65L896.149 134.761C896.48 134.982 896.7 135.093 896.81 135.204C896.92 135.315 897.03 135.537 897.14 135.648C897.14 135.759 897.25 136.091 897.25 136.646V138.088L899.45 139.308L899.56 138.088C899.56 137.644 899.56 137.201 899.56 136.979C899.45 136.757 899.34 136.424 899.12 136.202C900.001 136.646 900.771 136.868 901.541 136.979C902.201 137.09 902.861 136.979 903.301 136.757C903.632 136.535 903.852 136.313 903.852 136.091C903.852 135.759 903.742 135.537 903.412 135.204C902.971 134.982 902.421 134.539 901.651 134.095Z" fill="black"/>
<path d="M903.301 140.528L907.372 138.532L908.253 138.975C908.473 139.086 908.583 139.197 908.693 139.197C909.133 139.53 909.463 139.641 909.683 139.863C910.013 140.084 910.123 140.306 910.233 140.528C910.343 140.75 910.343 140.972 910.123 141.083C910.013 141.304 909.683 141.526 909.243 141.748C908.803 141.97 908.363 142.081 907.923 142.192C907.483 142.303 907.152 142.303 906.822 142.192C906.492 142.192 906.162 142.081 905.832 141.859C905.612 141.748 905.172 141.526 904.622 141.304L903.301 140.528ZM910.233 138.975C910.123 138.975 910.123 138.864 910.013 138.864L906.602 136.979L900.331 139.973L903.852 141.97C904.512 142.414 905.172 142.635 905.612 142.857C906.272 143.079 906.822 143.301 907.372 143.301C908.033 143.412 908.803 143.412 909.463 143.301C910.013 143.19 910.563 143.079 911.114 142.857C911.664 142.525 912.104 142.303 912.324 141.97C912.544 141.637 912.544 141.304 912.434 140.972C912.324 140.639 912.104 140.306 911.664 139.863C911.334 139.641 910.893 139.419 910.233 138.975Z" fill="black"/>
<path d="M919.366 144.077L919.256 143.966C918.596 143.523 917.826 143.301 917.275 143.079C916.615 142.857 916.065 142.746 915.515 142.746C914.965 142.746 914.525 142.746 914.195 142.968C913.755 143.19 913.534 143.523 913.754 144.077C913.865 144.41 914.415 144.965 915.185 145.519C915.845 145.963 916.175 146.296 916.395 146.518C916.615 146.739 916.725 146.85 916.835 147.072C916.835 147.183 916.835 147.294 916.615 147.405C916.395 147.516 916.065 147.516 915.515 147.405C915.075 147.294 914.525 147.072 913.865 146.739C913.865 146.739 913.865 146.739 913.754 146.739C913.204 146.407 912.874 146.185 912.764 145.852C912.654 145.63 912.654 145.297 912.984 145.076L911.114 144.077C910.564 144.521 910.344 144.965 910.674 145.519C910.894 146.074 911.554 146.628 912.654 147.183C912.654 147.183 912.764 147.183 912.764 147.294C913.534 147.738 914.305 148.07 914.965 148.292C915.625 148.514 916.285 148.625 916.945 148.625C917.496 148.625 918.046 148.514 918.376 148.403C918.816 148.181 918.926 147.959 919.036 147.738C919.036 147.516 918.926 147.183 918.706 146.85C918.486 146.518 917.936 146.074 917.165 145.519C916.395 144.965 915.955 144.521 915.845 144.299C915.735 144.188 915.845 144.077 915.955 143.966C916.065 143.856 916.395 143.856 916.615 143.966C917.055 144.077 917.606 144.299 918.046 144.521C918.046 144.521 918.046 144.521 918.156 144.521C918.596 144.743 918.926 145.076 919.036 145.187C919.146 145.408 919.146 145.63 918.816 145.852L920.686 146.85C921.237 146.518 921.347 146.185 921.127 145.63C921.016 145.187 920.356 144.632 919.366 144.077Z" fill="black"/>
<path d="M888.648 165.647C888.648 165.149 888.494 164.682 888.188 164.246C887.881 163.805 887.329 163.214 886.532 162.474C885.735 161.728 885.104 161.081 884.639 160.533C883.371 159.037 882.737 157.624 882.737 156.294C882.737 155.602 882.906 155.082 883.243 154.732C883.586 154.379 884.074 154.228 884.708 154.279C885.346 154.332 886.062 154.581 886.854 155.026C887.651 155.473 888.361 156.038 888.985 156.722C889.608 157.4 890.091 158.136 890.434 158.932C890.781 159.73 890.955 160.513 890.955 161.281L888.655 159.991C888.655 159.405 888.494 158.861 888.172 158.358C887.85 157.849 887.398 157.431 886.816 157.105C886.253 156.789 885.817 156.682 885.505 156.783C885.193 156.877 885.037 157.147 885.037 157.592C885.037 158.009 885.219 158.459 885.581 158.944C885.949 159.431 886.489 159.997 887.199 160.642C888.507 161.827 889.46 162.921 890.058 163.924C890.656 164.928 890.955 165.927 890.955 166.923C890.955 168.031 890.59 168.696 889.859 168.919C889.128 169.136 888.144 168.898 886.908 168.204C886.049 167.723 885.267 167.105 884.562 166.352C883.857 165.593 883.318 164.796 882.944 163.96C882.576 163.126 882.393 162.297 882.393 161.471L884.7 162.765C884.7 164.177 885.436 165.296 886.908 166.121C887.454 166.428 887.881 166.541 888.188 166.461C888.494 166.375 888.648 166.104 888.648 165.647Z" fill="black"/>
</svg>
