<svg width="1170" height="703" viewBox="0 0 1170 703" fill="none" xmlns="http://www.w3.org/2000/svg">
<rect width="2" height="119" transform="matrix(-0.866025 0.5 -0.866025 -0.5 362.865 558.5)" fill="black"/>
<path d="M360.281 550.008C360.317 550.029 367.209 562.008 367.183 562.007C367.098 562.002 346.408 558.013 346.416 558.003C346.421 557.996 348.652 557.482 351.375 556.86L356.325 555.729L358.279 552.874C359.354 551.304 360.24 550.015 360.25 550.01C360.259 550.004 360.273 550.004 360.281 550.008L360.281 550.008Z" fill="black"/>
</svg>
