<svg width="1170" height="703" viewBox="0 0 1170 703" fill="none" xmlns="http://www.w3.org/2000/svg">
<rect width="37.5318" height="37.5318" transform="matrix(0.865401 -0.50108 0.865401 0.50108 922 392.948)" fill="#F9D692"/>
<rect width="37.5483" height="37.5324" transform="matrix(-4.36866e-08 1 -0.865865 0.500278 954.498 344.908)" fill="#D8A741"/>
<rect width="50.8385" height="10.2742" transform="matrix(0.862243 -0.506496 0.862243 0.506496 930.336 384.256)" fill="#E3B24B"/>
<rect width="10.2828" height="11.3259" transform="matrix(0.862225 0.506525 7.40607e-05 1 930.331 384.243)" fill="#866828"/>
<rect width="11.3073" height="48.3647" transform="matrix(-4.29636e-08 1 -0.862211 0.50655 980.896 364.957)" fill="#D8A741"/>
<rect width="35.1409" height="10.1736" transform="matrix(0.85928 -0.511506 0.85928 0.511506 944.811 392.621)" fill="#E3B24B"/>
<rect width="10.1821" height="11.3259" transform="matrix(0.859264 0.511533 7.30838e-05 1 944.806 392.607)" fill="#866828"/>
<rect width="11.3074" height="35.0933" transform="matrix(-4.23965e-08 1 -0.859247 0.511561 983.707 379.868)" fill="#D8A741"/>
<rect width="8.2444" height="37.5349" transform="matrix(-4.36866e-08 1 -0.865865 0.500278 987 392.948)" fill="#C99A39"/>
<rect width="8.94114" height="37.5347" transform="matrix(-4.37651e-08 1 -0.866253 0.499605 986.998 363.685)" fill="#C99A39"/>
<rect width="37.5319" height="8.25788" transform="matrix(0.865383 0.501111 7.51349e-05 1 922.002 392.935)" fill="#866828"/>
<rect width="5.45353" height="37.5825" transform="matrix(0.866264 0.499587 7.54409e-05 1 922 363.613)" fill="#866828"/>
<rect width="37.5343" height="8.98691" transform="matrix(0.866264 0.499587 7.54409e-05 1 922.002 363.643)" fill="#866828"/>
<rect width="37.5318" height="37.5318" transform="matrix(0.865401 -0.501081 0.865401 0.501081 922 363.681)" fill="#D8A741"/>
<path d="M946.178 361.432C946.49 361.233 946.61 361.01 946.54 360.765C946.474 360.518 946.227 360.154 945.8 359.673C945.376 359.191 945.076 358.786 944.9 358.46C944.42 357.568 944.596 356.856 945.428 356.323C945.86 356.046 946.374 355.877 946.969 355.814C947.572 355.752 948.211 355.804 948.887 355.97C949.567 356.139 950.21 356.404 950.817 356.764C951.427 357.127 951.867 357.518 952.135 357.935C952.408 358.35 952.486 358.757 952.371 359.154C952.26 359.554 951.964 359.908 951.484 360.215L949.723 359.169C950.09 358.934 950.25 358.679 950.205 358.403C950.164 358.125 949.92 357.853 949.474 357.588C949.043 357.332 948.623 357.189 948.212 357.157C947.805 357.123 947.462 357.195 947.183 357.374C946.923 357.54 946.844 357.763 946.946 358.04C947.052 358.32 947.3 358.672 947.69 359.093C948.41 359.87 948.79 360.528 948.83 361.067C948.87 361.607 948.579 362.077 947.956 362.476C947.264 362.919 946.44 363.101 945.485 363.022C944.533 362.94 943.584 362.618 942.636 362.055C941.979 361.664 941.492 361.237 941.175 360.773C940.863 360.306 940.759 359.862 940.866 359.441C940.976 359.023 941.289 358.648 941.806 358.317L943.573 359.368C942.69 359.933 942.812 360.551 943.939 361.221C944.358 361.47 944.763 361.614 945.156 361.652C945.552 361.689 945.892 361.615 946.178 361.432Z" fill="black"/>
<path d="M957.872 366.259C957.124 366.738 956.345 367.078 955.533 367.278C954.726 367.477 953.926 367.547 953.135 367.488L953.511 369.002L951.461 368.93L951.01 366.972C950.77 366.87 950.538 366.752 950.315 366.62C949.606 366.198 949.134 365.721 948.897 365.186C948.66 364.652 948.684 364.105 948.968 363.545C949.256 362.984 949.783 362.455 950.549 361.96L950.944 361.707C951.732 361.202 952.575 360.848 953.474 360.645C954.38 360.441 955.268 360.401 956.139 360.525C957.017 360.649 957.812 360.923 958.524 361.346C959.236 361.77 959.707 362.248 959.937 362.783C960.174 363.318 960.142 363.867 959.843 364.431C959.551 364.995 959.013 365.528 958.229 366.03L957.872 366.259ZM956.45 364.966C957.289 364.428 957.766 363.925 957.881 363.455C957.996 362.985 957.756 362.573 957.161 362.219C956.57 361.868 955.898 361.735 955.145 361.822C954.396 361.905 953.603 362.212 952.767 362.743L952.377 362.993C951.56 363.516 951.087 364.018 950.957 364.497C950.827 364.976 951.064 365.395 951.667 365.754C952.258 366.105 952.928 366.236 953.677 366.148C954.43 366.057 955.224 365.746 956.06 365.216L956.45 364.966Z" fill="black"/>
<path d="M961.875 370.763C962.187 370.564 962.307 370.341 962.237 370.096C962.171 369.849 961.924 369.485 961.497 369.005C961.073 368.522 960.773 368.117 960.597 367.791C960.117 366.899 960.293 366.187 961.125 365.654C961.557 365.377 962.071 365.208 962.666 365.145C963.269 365.083 963.908 365.135 964.584 365.301C965.264 365.47 965.907 365.735 966.514 366.095C967.124 366.458 967.564 366.849 967.832 367.266C968.105 367.681 968.183 368.088 968.068 368.485C967.957 368.885 967.661 369.239 967.181 369.546L965.42 368.5C965.786 368.265 965.947 368.01 965.902 367.734C965.861 367.456 965.617 367.185 965.171 366.919C964.74 366.663 964.32 366.52 963.909 366.488C963.501 366.454 963.159 366.526 962.88 366.705C962.62 366.871 962.541 367.094 962.643 367.371C962.749 367.652 962.997 368.003 963.387 368.424C964.107 369.201 964.487 369.859 964.527 370.398C964.567 370.938 964.276 371.408 963.653 371.807C962.961 372.25 962.137 372.432 961.181 372.353C960.23 372.272 959.281 371.949 958.333 371.386C957.676 370.995 957.189 370.568 956.872 370.104C956.559 369.637 956.456 369.193 956.563 368.773C956.673 368.354 956.986 367.979 957.503 367.648L959.27 368.699C958.387 369.264 958.509 369.882 959.636 370.552C960.055 370.801 960.46 370.945 960.853 370.983C961.249 371.02 961.589 370.946 961.875 370.763Z" fill="black"/>
</svg>
